<?xml version="1.0" encoding="utf-8"?>
<!-- Generator: Adobe Illustrator 19.2.1, SVG Export Plug-In . SVG Version: 6.00 Build 0)  -->
<svg version="1.1" id="bodies_x5F_calque" xmlns:x="&ns_extend;" xmlns:i="&ns_ai;" xmlns:graph="&ns_graphs;"
	 xmlns="http://www.w3.org/2000/svg" xmlns:xlink="http://www.w3.org/1999/xlink" x="0px" y="0px" viewBox="0 0 1006 814.5"
	 style="enable-background:new 0 0 1006 814.5;" xml:space="preserve">
<style type="text/css">
	.st0{fill:#EFD3B9;}
	.st1{opacity:0.5;}
	.st2{opacity:0.1;fill:#1C1D00;enable-background:new    ;}
	.st3{fill:#C93325;}
	.st4{fill:#B32F1F;}
	.st5{opacity:0.4;fill:#C1C100;enable-background:new    ;}
	.st6{opacity:0.4;fill:#BFB10B;enable-background:new    ;}
	.st7{opacity:0.4;fill:#BB9318;enable-background:new    ;}
	.st8{opacity:0.4;fill:#BA841B;enable-background:new    ;}
	.st9{opacity:0.4;fill:#B55B1F;enable-background:new    ;}
	.st10{opacity:0.4;fill:#B4471F;enable-background:new    ;}
	.st11{opacity:0.4;fill:#B12B1F;enable-background:new    ;}
	.st12{fill:#DCC9A0;}
	.st13{fill:none;}
	.st14{opacity:0.4;fill:#BDA413;enable-background:new    ;}
	.st15{opacity:0.4;fill:#F5B3D1;enable-background:new    ;}
	.st16{fill:#AA3B8E;}
	.st17{fill:#99357F;}
	.st18{opacity:0.4;fill:#FDEEF6;enable-background:new    ;}
	.st19{opacity:0.4;fill:#F7C5DD;enable-background:new    ;}
	.st20{opacity:0.4;fill:#F4AACC;enable-background:new    ;}
	.st21{opacity:0.4;fill:#F29FC5;enable-background:new    ;}
	.st22{opacity:0.4;fill:#F088B6;enable-background:new    ;}
	.st23{opacity:0.4;fill:#ED6EA7;enable-background:new    ;}
	.st24{opacity:0.4;fill:#EA5297;enable-background:new    ;}
	.st25{fill:#F8C3C3;}
	.st26{opacity:0.4;fill:#F5B5D2;enable-background:new    ;}
</style>
<metadata>
	<sfw  xmlns="&ns_sfw;">
		<slices></slices>
		<sliceSourceBounds  bottomLeftOrigin="true" height="814.5" width="1006" x="0" y="-0.5"></sliceSourceBounds>
	</sfw>
</metadata>
<g id="man">
	<rect x="1.3" y="0.5" class="st0" width="501.7" height="813.5"/>
	<g class="st1">
		<rect class="st2" width="501.7" height="1.5"/>
		<rect y="4.8" class="st2" width="501.7" height="1.5"/>
		<rect y="9.6" class="st2" width="501.7" height="1.5"/>
		<rect y="14.4" class="st2" width="501.7" height="1.5"/>
		<rect y="19.1" class="st2" width="501.7" height="1.5"/>
		<rect y="23.9" class="st2" width="501.7" height="1.5"/>
		<rect y="28.7" class="st2" width="501.7" height="1.5"/>
		<rect y="33.5" class="st2" width="501.7" height="1.5"/>
		<rect y="38.3" class="st2" width="501.7" height="1.5"/>
		<rect y="43.1" class="st2" width="501.7" height="1.5"/>
		<rect y="47.8" class="st2" width="501.7" height="1.5"/>
		<rect y="52.6" class="st2" width="501.7" height="1.5"/>
		<rect y="57.4" class="st2" width="501.7" height="1.5"/>
		<rect y="62.2" class="st2" width="501.7" height="1.5"/>
		<rect y="67" class="st2" width="501.7" height="1.5"/>
		<rect y="71.8" class="st2" width="501.7" height="1.5"/>
		<rect y="76.6" class="st2" width="501.7" height="1.5"/>
		<rect y="81.3" class="st2" width="501.7" height="1.5"/>
		<rect y="86.1" class="st2" width="501.7" height="1.5"/>
		<rect y="90.9" class="st2" width="501.7" height="1.5"/>
		<rect y="95.7" class="st2" width="501.7" height="1.5"/>
		<rect y="100.5" class="st2" width="501.7" height="1.5"/>
		<rect y="105.3" class="st2" width="501.7" height="1.5"/>
		<rect y="110" class="st2" width="501.7" height="1.5"/>
		<rect y="114.8" class="st2" width="501.7" height="1.5"/>
		<rect y="119.6" class="st2" width="501.7" height="1.5"/>
		<rect y="124.4" class="st2" width="501.7" height="1.5"/>
		<rect y="129.2" class="st2" width="501.7" height="1.5"/>
		<rect y="134" class="st2" width="501.7" height="1.5"/>
		<rect y="138.8" class="st2" width="501.7" height="1.5"/>
		<rect y="143.5" class="st2" width="501.7" height="1.5"/>
		<rect y="148.3" class="st2" width="501.7" height="1.5"/>
		<rect y="153.1" class="st2" width="501.7" height="1.5"/>
		<rect y="157.9" class="st2" width="501.7" height="1.5"/>
		<rect y="162.7" class="st2" width="501.7" height="1.5"/>
		<rect y="167.5" class="st2" width="501.7" height="1.5"/>
		<rect y="172.2" class="st2" width="501.7" height="1.5"/>
		<rect y="177" class="st2" width="501.7" height="1.5"/>
		<rect y="181.8" class="st2" width="501.7" height="1.5"/>
		<rect y="186.6" class="st2" width="501.7" height="1.5"/>
		<rect y="191.4" class="st2" width="501.7" height="1.5"/>
		<rect y="196.2" class="st2" width="501.7" height="1.5"/>
		<rect y="200.9" class="st2" width="501.7" height="1.5"/>
		<rect y="205.7" class="st2" width="501.7" height="1.5"/>
		<rect y="210.5" class="st2" width="501.7" height="1.5"/>
		<rect y="215.3" class="st2" width="501.7" height="1.5"/>
		<rect y="220.1" class="st2" width="501.7" height="1.5"/>
		<rect y="224.9" class="st2" width="501.7" height="1.5"/>
		<rect y="229.7" class="st2" width="501.7" height="1.5"/>
		<rect y="234.4" class="st2" width="501.7" height="1.5"/>
		<rect y="239.2" class="st2" width="501.7" height="1.5"/>
		<rect y="244" class="st2" width="501.7" height="1.5"/>
		<rect y="248.8" class="st2" width="501.7" height="1.5"/>
		<rect y="253.6" class="st2" width="501.7" height="1.5"/>
		<rect y="258.4" class="st2" width="501.7" height="1.5"/>
		<rect y="263.1" class="st2" width="501.7" height="1.5"/>
		<rect y="267.9" class="st2" width="501.7" height="1.5"/>
		<rect y="272.7" class="st2" width="501.7" height="1.5"/>
		<rect y="277.5" class="st2" width="501.7" height="1.5"/>
		<rect y="282.3" class="st2" width="501.7" height="1.5"/>
		<rect y="287.1" class="st2" width="501.7" height="1.5"/>
		<rect y="291.9" class="st2" width="501.7" height="1.5"/>
		<rect y="296.6" class="st2" width="501.7" height="1.5"/>
		<rect y="301.4" class="st2" width="501.7" height="1.5"/>
		<rect y="306.2" class="st2" width="501.7" height="1.5"/>
		<rect y="311" class="st2" width="501.7" height="1.5"/>
		<rect y="315.8" class="st2" width="501.7" height="1.5"/>
		<rect y="320.6" class="st2" width="501.7" height="1.5"/>
		<rect y="325.4" class="st2" width="501.7" height="1.5"/>
		<rect y="330.1" class="st2" width="501.7" height="1.5"/>
		<rect y="334.9" class="st2" width="501.7" height="1.5"/>
		<rect y="339.7" class="st2" width="501.7" height="1.5"/>
		<rect y="344.5" class="st2" width="501.7" height="1.5"/>
		<rect y="349.3" class="st2" width="501.7" height="1.5"/>
		<rect y="354" class="st2" width="501.7" height="1.5"/>
		<rect y="358.8" class="st2" width="501.7" height="1.5"/>
		<rect y="363.6" class="st2" width="501.7" height="1.5"/>
		<rect y="368.4" class="st2" width="501.7" height="1.5"/>
		<rect y="373.2" class="st2" width="501.7" height="1.5"/>
		<rect y="378" class="st2" width="501.7" height="1.5"/>
		<rect y="382.8" class="st2" width="501.7" height="1.5"/>
		<rect y="387.5" class="st2" width="501.7" height="1.5"/>
		<rect y="392.3" class="st2" width="501.7" height="1.5"/>
		<rect y="397.1" class="st2" width="501.7" height="1.5"/>
		<rect y="401.9" class="st2" width="501.7" height="1.5"/>
		<rect y="406.7" class="st2" width="501.7" height="1.5"/>
		<rect y="411.5" class="st2" width="501.7" height="1.5"/>
		<rect y="416.3" class="st2" width="501.7" height="1.5"/>
		<rect y="421" class="st2" width="501.7" height="1.5"/>
		<rect y="425.8" class="st2" width="501.7" height="1.5"/>
		<rect y="430.6" class="st2" width="501.7" height="1.5"/>
		<rect y="435.4" class="st2" width="501.7" height="1.5"/>
		<rect y="440.2" class="st2" width="501.7" height="1.5"/>
		<rect y="445" class="st2" width="501.7" height="1.5"/>
		<rect y="449.7" class="st2" width="501.7" height="1.5"/>
		<rect y="454.5" class="st2" width="501.7" height="1.5"/>
		<rect y="459.3" class="st2" width="501.7" height="1.5"/>
		<rect y="464.1" class="st2" width="501.7" height="1.5"/>
		<rect y="468.9" class="st2" width="501.7" height="1.5"/>
		<rect y="473.7" class="st2" width="501.7" height="1.5"/>
		<rect y="478.5" class="st2" width="501.7" height="1.5"/>
		<rect y="483.2" class="st2" width="501.7" height="1.5"/>
		<rect y="488" class="st2" width="501.7" height="1.5"/>
		<rect y="492.8" class="st2" width="501.7" height="1.5"/>
		<rect y="497.6" class="st2" width="501.7" height="1.5"/>
		<rect y="502.4" class="st2" width="501.7" height="1.5"/>
		<rect y="507.2" class="st2" width="501.7" height="1.5"/>
		<rect y="511.9" class="st2" width="501.7" height="1.5"/>
		<rect y="516.7" class="st2" width="501.7" height="1.5"/>
		<rect y="521.5" class="st2" width="501.7" height="1.5"/>
		<rect y="526.3" class="st2" width="501.7" height="1.5"/>
		<rect y="531.1" class="st2" width="501.7" height="1.5"/>
		<rect y="535.9" class="st2" width="501.7" height="1.5"/>
		<rect y="540.7" class="st2" width="501.7" height="1.5"/>
		<rect y="545.4" class="st2" width="501.7" height="1.5"/>
		<rect y="550.2" class="st2" width="501.7" height="1.5"/>
		<rect y="555" class="st2" width="501.7" height="1.5"/>
		<rect y="559.8" class="st2" width="501.7" height="1.5"/>
		<rect y="564.6" class="st2" width="501.7" height="1.5"/>
		<rect y="569.3" class="st2" width="501.7" height="1.5"/>
		<rect y="574.1" class="st2" width="501.7" height="1.5"/>
		<rect y="578.9" class="st2" width="501.7" height="1.5"/>
		<rect y="583.7" class="st2" width="501.7" height="1.5"/>
		<rect y="588.5" class="st2" width="501.7" height="1.5"/>
		<rect y="593.3" class="st2" width="501.7" height="1.5"/>
		<rect y="598.1" class="st2" width="501.7" height="1.5"/>
		<rect y="602.8" class="st2" width="501.7" height="1.5"/>
		<rect y="607.6" class="st2" width="501.7" height="1.5"/>
		<rect y="612.4" class="st2" width="501.7" height="1.5"/>
		<rect y="617.2" class="st2" width="501.7" height="1.5"/>
		<rect y="622" class="st2" width="501.7" height="1.5"/>
		<rect y="626.8" class="st2" width="501.7" height="1.5"/>
		<rect y="631.5" class="st2" width="501.7" height="1.5"/>
		<rect y="636.3" class="st2" width="501.7" height="1.5"/>
		<rect y="641.1" class="st2" width="501.7" height="1.5"/>
		<rect y="645.9" class="st2" width="501.7" height="1.5"/>
		<rect y="650.7" class="st2" width="501.7" height="1.5"/>
		<rect y="655.5" class="st2" width="501.7" height="1.5"/>
		<rect y="660.3" class="st2" width="501.7" height="1.5"/>
		<rect y="665" class="st2" width="501.7" height="1.5"/>
		<rect y="669.8" class="st2" width="501.7" height="1.5"/>
		<rect y="674.6" class="st2" width="501.7" height="1.5"/>
		<rect y="679.4" class="st2" width="501.7" height="1.5"/>
		<rect y="684.2" class="st2" width="501.7" height="1.5"/>
		<rect y="689" class="st2" width="501.7" height="1.5"/>
		<rect y="693.8" class="st2" width="501.7" height="1.5"/>
		<rect y="698.5" class="st2" width="501.7" height="1.5"/>
		<rect y="703.3" class="st2" width="501.7" height="1.5"/>
		<rect y="708.1" class="st2" width="501.7" height="1.5"/>
		<rect y="712.9" class="st2" width="501.7" height="1.5"/>
		<rect y="717.7" class="st2" width="501.7" height="1.5"/>
		<rect y="722.5" class="st2" width="501.7" height="1.5"/>
		<rect y="727.2" class="st2" width="501.7" height="1.5"/>
		<rect y="732" class="st2" width="501.7" height="1.5"/>
		<rect y="736.8" class="st2" width="501.7" height="1.5"/>
		<rect y="741.6" class="st2" width="501.7" height="1.5"/>
		<rect y="746.4" class="st2" width="501.7" height="1.5"/>
		<rect y="751.2" class="st2" width="501.7" height="1.5"/>
		<rect y="756" class="st2" width="501.7" height="1.5"/>
		<rect y="760.7" class="st2" width="501.7" height="1.5"/>
		<rect y="765.5" class="st2" width="501.7" height="1.5"/>
		<rect y="770.3" class="st2" width="501.7" height="1.5"/>
		<rect y="775.1" class="st2" width="501.7" height="1.5"/>
		<rect y="779.9" class="st2" width="501.7" height="1.5"/>
		<rect y="784.7" class="st2" width="501.7" height="1.5"/>
		<rect y="789.4" class="st2" width="501.7" height="1.5"/>
		<rect y="794.2" class="st2" width="501.7" height="1.5"/>
		<rect y="799" class="st2" width="501.7" height="1.5"/>
		<rect y="803.8" class="st2" width="501.7" height="1.5"/>
		<rect y="808.6" class="st2" width="501.7" height="1.5"/>
		<rect y="813.4" class="st2" width="501.7" height="0.2"/>
	</g>
	<path class="st3" d="M292.7,130.3c0,0,0.7-18.5-1.4-21.3c0,0-2.8-9.4-2.1-12c0,0-6.1-0.5-6.6-10.3c0,0-1.4-16.4,4.2-8.7
		c0,0-7.7-38.7,26-39.6c0,0,31-1.2,26.7,38.2c0,0,6.3-2.6,4,10.3c0,0-0.5,10.6-6.1,9.8c0,0-0.2,10.6-2.6,12.4c0,0-3,15.9-0.5,19.7
		s21.1,19,29.3,19.2c0,0,38.2-9.4,44.1,36.6c0,0,0.2,11.7-1.4,20.2c0,0-0.5,6.6,1.4,11.3c0,0,5.4,20.6,5.9,29.8
		c0,0,1.9,9.4,8.4,16.4c5.7,9.5,10,19.8,12.9,30.5c4.9,18.1,5.2,24.4,9.1,32.4s6.8,21.6,9.6,26.5s1.6,6.6,8,9.6
		c4.8,2.2,9,5.5,12.2,9.7c2.8,3.5,13.6,10.3,13.1,12.4s-4.7,4-7.3,1.9s-9.1-5.2-8-2.8s14.4,28.7,11.4,31.8l-0.1,0.1
		c0,0-3.3,0.5-5.5-4.4s-7.9-12.3-7.9-12.3L473,412c0,0,5.1,10.5,2.3,11.9c0,0-3.6,0.9-5.3-5.3l-9.7-20.2c0,0-1.4-0.8-1,1.5
		s4.7,22.5,5.3,23.3s0.7,4.2-1.3,4.8c0,0-3.5,0.5-4.4-4.5c0,0-8-22.1-8-23.5s-1.3-0.5-1.3,0.1s0.7,18.5-0.1,19.7
		c-0.1,0.9-0.9,1.6-1.8,1.6c-1.9-0.3-3.3-1.8-3.4-3.7c0,0-1.1-10.7-0.9-13.8c0.1-2.7-0.4-5.5-1.4-8c-0.6-1.8-6.1-12.8-7-17.8
		s-1.9-6.5-2.2-10.8s-2.2-10.8-2.9-13.5c0,0-16-30.7-22-40.7c0,0-20-32-18.7-45.4c0,0-12.7-34-14-36c0,0-12.7,36-8,60
		c0,0,4,24.7,4,33.4s11.3,49.4,12,66.7s2,54-4,78s-2.7,37.4-2.7,47.4c0,10,4,34,4.7,46s-1.3,54-6.7,73.4s-3.3,32-2,39.3
		s9.3,20,16,24.7s31.4,22.7,6,26c0,0-5.3,4.7-14-0.7c0,0-11.3-3.3-13.3-13.3c0,0-7.3-4-12-4.7s-12-10-6.7-16c0,0,3.3-6.7,1.3-12
		s0-14,0.7-18s-1.3-16-2.7-26s-13.3-43.3-8.7-63.4s2-20.7,0-36s-9.3-42-9.3-55.4s-16.7-59.4-14-84h-4.6c0,0-7.3,66.7-17.3,107.4
		c0,0-1.3,30-8,39.3c0,0,0.7,12,2,22s3.3,33.3-2.7,46.7s-8.7,48-8.7,56.7s-2,12.7,0.7,19.3s6.7,14,0,17.3s-18,6-19.3,8.7
		s-19.3,23.3-29.4,10.7c0,0-18.7-4-6-14c0,0,13.3-6,20-14s10-15.4,11.3-17.4s2-17.3,1.3-26.7s-10.6-69.3-8.6-81.3s5.3-32.7,7.3-43.4
		s-0.7-26.7-0.7-32.7s-12.6-72.7-9.3-96.7s6-54,10.7-66.7c4.7-12.7,6.7-42.7,7.3-52s-8-45.4-9.3-48.7c0,0-10.7,27.4-14,37.4
		s-0.7,16-8.7,28.7s-18.7,30.7-26,46s-8,27.4-11.3,39.4s-7.3,16-7.3,16l-1,18.6c0,0,0,3.8-2.7,4.4c-1.7-0.3-2.9-2-2.6-3.7
		c0-0.2,0.1-0.5,0.2-0.7c0,0,0.8-15.5,0.3-17.6c0,0-0.6-0.9-1.5,0.5s-7.4,24.1-8.6,25.7s-2,2.6-3.5,2.4c0,0-3.5-1.4-1.8-4.7
		c0,0,2.6-10.7,3.8-12.8s3-11.3,2.6-12c-0.2-0.5-0.8-0.7-1.3-0.5c-0.1,0.1-0.2,0.1-0.3,0.2c-0.6,0.6-6.6,15.5-7.4,17
		s-3.9,10.8-7.8,9.9c0,0-4.1-1.5-0.8-6.9c0,0,3.5-9.6,4.5-11s4.4-10.8,4.2-12s-1.4,0.8-1.8,1.2s-7.8,12.9-9,14.8s-3.5,3.6-5.1,3.2
		c0,0-2.9-0.5-0.1-6c0,0,5.7-10.1,7.5-14.5s4.1-13.7,4.7-14.8c0,0-3.3,2.6-5,4.1s-7.4,3.3-9.5,2.3s-3.2-2.3-1.1-3.5
		c2.5-1.7,4.8-3.5,6.9-5.6c1.2-1,8-6.3,9-8.1s8.6-7.5,9.9-8.7c3.2-3.8,5.9-7.9,8.1-12.3c1.5-3.6,11-26.9,12.5-33.3
		s5.4-28.4,6.9-33.7s6.3-13.1,9-17.3s9.6-15,10.2-20.8s3.2-21.1,4.4-24.5s1.2-12.9,0.9-18.1s-5-26.3,8-39.3s25.6-14.8,33.1-13.4
		C272.8,144.5,283.7,138.6,292.7,130.3z"/>
	<path id="manSvg" class="st4" d="M474,371c-3.2-4.2-7.4-7.5-12.2-9.6c-6.3-3-5.2-4.7-8-9.6s-5.6-18.5-9.6-26.5s-4.2-14.3-9.1-32.4
		c-2.9-10.7-7.2-21-12.9-30.5c-6.6-7-8.4-16.4-8.4-16.4c-0.5-9.1-5.9-29.8-5.9-29.8c-1.9-4.7-1.4-11.3-1.4-11.3
		c1.6-8.4,1.4-20.2,1.4-20.2c-5.9-46-44.1-36.6-44.1-36.6c-8.2-0.2-26.7-15.5-29.3-19.2s0.5-19.7,0.5-19.7
		c2.3-1.9,2.6-12.4,2.6-12.4c5.6,0.7,6.1-9.8,6.1-9.8c2.4-12.9-4-10.3-4-10.3c3.6-33.1-17.6-37.6-24.5-38.2v358.8h1.1
		c-2.7,24.7,14,70.7,14,84s7.3,40,9.3,55.4s4.7,16,0,36s7.3,53.4,8.7,63.4s3.3,22,2.7,26s-2.7,12.7-0.7,18s-1.3,12-1.3,12
		c-5.3,6,2,15.3,6.7,16s12,4.7,12,4.7c2,10,13.3,13.3,13.3,13.3c8.7,5.3,14,0.7,14,0.7c25.4-3.3,0.7-21.3-6-26s-14.7-17.3-16-24.7
		s-3.3-20,2-39.3s7.3-61.4,6.7-73.4s-4.7-36-4.7-46s-3.3-23.4,2.7-47.4s4.7-60.7,4-78s-12-58-12-66.7s-4-33.4-4-33.4
		c-4.7-24,8-60,8-60c1.3,2,14,36,14,36c-1.3,13.3,18.7,45.4,18.7,45.4c6,10,22,40.7,22,40.7c0.7,2.7,2.6,9.2,2.9,13.5
		s1.2,5.8,2.2,10.8s6.4,16,7,17.8c1,2.6,1.4,5.3,1.4,8c-0.2,3.2,0.9,13.8,0.9,13.8c0.2,1.9,1.6,3.4,3.4,3.7c0.9-0.1,1.6-0.7,1.8-1.6
		c0.8-1.2,0.1-19.1,0.1-19.7s1.4-1.5,1.3-0.1s8,23.5,8,23.5c0.9,5.1,4.4,4.5,4.4,4.5c2-0.6,1.8-4,1.3-4.8s-4.9-21-5.3-23.3
		s1-1.5,1-1.5l9.7,20.2c1.7,6.2,5.3,5.3,5.3,5.3c2.8-1.5-2.3-11.9-2.3-11.9l-3.4-14.3c0,0,5.6,7.4,7.9,12.3s5.5,4.4,5.5,4.4l0.1-0.1
		c2.9-3.1-10.3-29.5-11.4-31.8s5.4,0.7,8,2.8s6.8,0.2,7.3-1.9S476.8,374.5,474,371z"/>
	<rect id="manFeet" x="39.6" y="662.1" class="st5" width="275.2" height="79.4"/>
	<circle class="st3" cx="81.3" cy="701.7" r="37.6"/>
	<rect id="manShins" x="39.6" y="572.8" class="st6" width="275.2" height="79.4"/>
	<circle class="st3" cx="81.3" cy="612" r="37.6"/>
	<rect id="manKidneys" x="39.6" y="394.4" class="st7" width="275.2" height="79.4"/>
	<circle class="st3" cx="81.3" cy="434.4" r="37.6"/>
	<rect id="manStomach" x="39.6" y="306.1" class="st8" width="275.2" height="79.4"/>
	<circle class="st3" cx="81.3" cy="345.9" r="37.6"/>
	<rect id="manLungs" x="39.6" y="216.8" class="st9" width="275.2" height="79.4"/>
	<circle class="st3" cx="81.3" cy="257.2" r="37.6"/>
	<rect id="manShoulders" x="39.6" y="127.6" class="st10" width="275.2" height="79.4"/>
	<circle class="st3" cx="81.3" cy="167.5" r="37.6"/>
	<rect id="manHead" x="39.6" y="38.4" class="st11" width="275.2" height="79.4"/>
	<circle class="st3" cx="81.3" cy="78.5" r="37.6"/>
	<g>
		<path class="st12" d="M80,56.5c0,0,0.7-2.9-3.4-3c0,0-4-0.2-3.4,2.4c0,0-3.9,0.9-2.9,2.8c0,0-4.7,0.2-3.1,3.3c0,0-2.4,0.3-1.2,2.3
			c0,0-4.2,1.6-2.4,4.2c0,0-4,1.3-2.2,3.3c0,0-1.8,2.3-0.5,3.2c-0.6,1.2-0.3,2.7,0.7,3.6c0,0-3.4,6.2,0.1,8.9c0,0,0.9,5.6,2.6,6.1
			c0,0,2,4.8,3.7,4.4c0,0,2.1,1.8,2.7,1c0,0,2.6,2,3.2,1.1c0,0,4.5,3.4,4.4,0.3c0,0,2.7-0.1,2.1-1.3C77.4,94,80,56.5,80,56.5z"/>
		<path class="st12" d="M81.3,56.7c0,0-0.8-2.9,3.3-3c0,0,4-0.2,3.5,2.3c0,0,3.9,0.9,3,2.7c0,0,4.7,0.2,3.2,3.2c0,0,2.4,0.2,1.2,2.3
			c0,0,4.2,1.5,2.4,4.2c0,0,4,1.2,2.2,3.2c0,0,1.8,2.3,0.6,3.2c0.6,1.2,0.3,2.7-0.7,3.6c0,0,3.5,6.1,0.1,8.9c0,0-0.8,5.7-2.5,6.2
			c0,0-1.9,4.8-3.7,4.5c0,0-2.1,1.8-2.7,1c0,0-2.6,2-3.2,1.2c0,0-4.5,3.5-4.3,0.3c0,0-2.2,0.1-2.1-1.3
			C83.2,85.1,83.1,70.8,81.3,56.7z"/>
	</g>
	<g>
		<path class="st12" d="M66.9,173.3c-0.5-0.3-0.8-0.8-0.9-1.4c-0.1-1-0.4-2-1-2.9c-0.3-0.5-3.9-8.8,4.1-12.3c0.5-0.3,1-0.5,1.6-0.5
			c0,0,3.4-4.6,3.8-7c0.1-0.5,0.1-1-0.1-1.5c0,0-0.4-3.2,2-3.4c1.2-0.2,2.4,0.6,2.6,1.8c0,0-0.1,1.3,0.3,1.2c0,0,3.3-1.7,4.2-0.7
			c0,0,0-2,0.3-2l1.5-0.4c0.3,0.4,0.4,0.9,0.4,1.4c0.5-0.2,1.1-0.4,1.7-0.4l0.6-1.8c0.5-0.2,1.1-0.3,1.7-0.2c0,0.6,0,1.3-0.1,1.9
			c0.3,0,0.7,0,1,0.2c0.6-0.7,1.2-1.3,1.9-1.9c0.5,0.1,1,0.3,1.4,0.7c-0.2,0.7-0.5,1.3-1,1.9c0.6,0.6,0.7,1.6,0.1,2.3l-0.3,0.3
			c0,0,0.1,1.6-2.7,1.7c0,0-2.6,0.1-3.2,1c0,0,9.1,0.9,10.1,2.4c0.6,1.4-0.1,3.1-1.5,3.7h-0.1c-0.1,0-0.3,0.1-0.4,0.1h-3
			c0,0,1.4,1.7,2.3,1.7c0,0,3.4,0.7,3.3,1.7c0,0-0.1,1.9-3.3,0.5l3,2.1c-0.2,0.8-1,1.3-1.8,1.1l0,0c0,0,0,3.9-1.4,3.6
			c1.9,3.5,2.2,7.7,0.8,11.4c-1.4,3.6-3.7,6.8-6.7,9.3c-0.4,0.4-0.8,0.8-1.1,1.2c-0.4,0.7-1.1,1.2-1.9,1.4c-1,0.4-2.1,0.3-3.1-0.2
			c-1.5-0.6-4.4-2.3-5.3-2.7c-2.1-1.1-4-2.7-5.5-4.6C69.6,181.7,66.6,176.7,66.9,173.3z"/>
		<path class="st3" d="M80.2,185.5c-0.8-0.8-1-1.3-0.8-3.1c0.2-0.4,0-1-0.4-1.2c-0.6-0.4-1-1-1.3-1.6c-0.4-0.8-0.7-1.7-0.8-2.6
			c0-0.8,0.2-1.7,0.6-2.4c0.3-0.5,0.6-1,0.8-1.6c0.6-1.2,1.2-2.4,1.7-3.6c0.6-1.8,4.8-4.7,5-4.8l0.3,0.4c0,0-4.2,2.9-4.8,4.6
			c-0.5,1.3-1.1,2.5-1.7,3.7c-0.3,0.5-0.6,1-0.8,1.6c-0.8,1.6-0.8,2.6,0.2,4.7c0.2,0.6,0.6,1.1,1.1,1.4c0.6,0.4,0.8,1.1,0.6,1.7
			c-0.2,1.7,0,2.1,0.6,2.7L80.2,185.5z"/>
		<path class="st3" d="M80.7,175.6l-0.5-0.1c0-0.2,0.1-0.3,0.2-0.4c0.1,0,0.1-0.1,0.1-0.2c-0.1-0.4-0.3-0.8-0.5-1.1
			c-0.7-1.1-0.8-2.5-0.3-3.7l0.4,0.2l-0.2-0.1l0.2,0.1c-0.4,1.1-0.3,2.3,0.3,3.3c0.8,1.1,0.7,1.5,0.3,1.9V175.6z"/>
		<path class="st3" d="M81.2,180.6c-0.2-1-0.5-1.2-1.6-2.1l-0.8-0.6c-1.8-1.5-0.8-4.5-0.8-4.6l0.4,0.1c0,0-0.9,2.8,0.6,4.1l0.8,0.6
			c1.1,0.9,1.5,1.3,1.7,2.4L81.2,180.6z"/>
		<path class="st3" d="M72.2,179.8c-0.5-1-0.5-1.5,0.3-3.2c0.3-0.4,0.3-0.9,0-1.3c-0.4-0.6-0.6-1.2-0.7-1.9
			c-0.2-0.9-0.1-1.9,0.1-2.8c0.3-0.8,0.7-1.5,1.3-2.1c0.4-0.4,0.9-0.8,1.3-1.2c1-0.9,1.9-1.9,2.8-2.9c1.2-1.5,6-2.9,6.3-3l0.1,0.5
			c0,0-4.9,1.4-6,2.8c-0.9,1-1.8,2-2.8,2.9c-0.4,0.4-0.9,0.8-1.3,1.2c-1.3,1.3-1.6,2.2-1.3,4.5c0,0.6,0.3,1.2,0.6,1.7
			c0.4,0.5,0.4,1.2,0.1,1.8c-0.7,1.6-0.7,2-0.3,2.8L72.2,179.8z"/>
		<path class="st3" d="M75,171.1l-0.4-0.2c0.1-0.2,0.2-0.3,0.4-0.3c0.1,0,0.2-0.1,0.2-0.2c0.1-0.4,0-0.8-0.1-1.2
			c-0.2-1.3,0.2-2.6,1.1-3.6l0.3,0.3l-0.2-0.2l0.2,0.2c-0.8,0.8-1.2,2-1,3.1c0.3,1.3,0.1,1.7-0.4,1.9C75,171,75,171,75,171.1z"/>
		<path class="st3" d="M75.7,175.9h-0.5c0-1-0.2-1.3-1.1-2.4l-0.6-0.8c-1.5-1.8,0.1-4.5,0.1-4.6l0.4,0.3l-0.2-0.1l0.2,0.1
			c0,0-1.4,2.5-0.2,4.1l0.6,0.8C75.3,174.3,75.7,174.7,75.7,175.9z"/>
		<path class="st3" d="M85.3,178.6l-0.4-0.2c0.2-0.5,0.6-0.9,1-1.3l1.2-1.2c0.8-0.7,1.1-1.8,0.9-2.9v-1.3c0-2.3,2.9-4.6,3.1-4.6
			l0.3,0.4c0,0-2.9,2.2-2.9,4.3v1.3c0.2,1.2-0.1,2.4-1,3.2c-0.4,0.4-0.8,0.8-1.2,1.2C85.8,177.7,85.5,178.1,85.3,178.6z"/>
		<path class="st3" d="M90.2,177.1l-0.5-0.1c0-0.2,0.1-0.3,0.1-0.5c0.1-0.4,0.2-0.6-0.9-1.9c-0.9-1-1.3-2.3-1.1-3.6l0.5,0.1
			c-0.2,1.1,0.2,2.3,1,3.1c1.2,1.3,1.2,1.6,1,2.3C90.3,176.7,90.3,176.9,90.2,177.1z"/>
		<path class="st3" d="M83.2,178.5c0-0.8,0.3-1.5,0.8-2.1c0.2-0.3,0.3-0.6,0.5-0.9c0.3-0.5,0.8-0.9,1.3-1.2c0.5-0.2,0.8-0.6,1.1-1
			c0.5-1.2,1.4-3,1.4-3l0.4,0.2c0,0-0.9,1.8-1.4,3c-0.3,0.6-0.7,1-1.3,1.3c-0.5,0.2-0.8,0.6-1.1,1c-0.2,0.4-0.4,0.7-0.5,0.9
			c-0.4,0.6-0.6,1.2-0.7,1.9L83.2,178.5L83.2,178.5L83.2,178.5z"/>
		<path class="st13" d="M73.5,172.6c0,0,1,1.9,0.6,3s-1,2.2-0.5,3.5"/>
	</g>
	<path class="st12" d="M103.3,253.4c-4-12-12.2-13.5-12.2-13.5c-1.6-0.8-1.8-0.9-3.8,0.3s-1.4,4.7-1.3,5.7c0,0.6,0,1.2-0.1,1.8
		c-1.2-0.4-2.3-1.2-3-2.2c0-4.5,0.6-12.1,0.6-12.1h-2.9c0,0,0.4,7.1,0.3,11.8c-0.7,0.9-1.6,1.6-2.7,2v-1.4c0.1-1.1,0.6-4.6-1.3-5.7
		s-2.2-1.1-3.8-0.3c0,0-8.2,1.5-12.2,13.5c-4,12-3.6,19.3,0.5,21.6s11.9,1.4,14.9-0.4s2.1-5.4,2-6.8c0-2,0.2-4,0.5-6
		c0.2-2.4,0.2-4.8,0.1-7.2c0.6-0.9,1.6-1.4,2.7-1.5c1.5,0.1,2.8,0.8,3.6,2.1c-0.1,2.2-0.1,4.5,0.1,6.7c0.4,2,0.6,4,0.5,6
		c-0.1,1.4-1,5,2,6.8s10.8,2.7,14.9,0.4S107.3,265.4,103.3,253.4z"/>
	<path class="st12" d="M76.4,329.7c0,0,0.5-2.1,3.4-1.7c0,0,2.1,4.1,5.9,3.4c1.1-0.8,2.2-1.6,3.2-2.6c1.9-2.3,5-3,7.7-1.8
		c1.8,0.9,3.2,2.5,4,4.4c0,0,2.5,5.8-1.8,15c0,0-6.1,13.1-19.1,12.3c0,0-7.7-1.3-7.1-5.7c0.7-1.3,0.2-3-1.2-3.6c0,0-0.1,0-0.1-0.1
		c-0.2-0.1-0.4-0.2-0.6-0.2c-1-0.3-2.1,0.3-2.4,1.3c-1.3,2.5-1.7,5.4-1.3,8.2c0.3,3.7,2.1,7.2,5,9.6c0,0-3.6,0.4-2.4,3.7
		c0,0-3.4-2.1-5.5-7.9c-1.1-4.5-1.2-9.2-0.4-13.8c0,0,0.7-4.2,3.5-5.6c0,0,2.9-2.4,6.7,0.9c1.1,1.6,3.1,2.4,5,2c0,0,4.4-1,5.6-3.7
		c0,0,2.1-3.6-0.1-6.1C84.5,337.7,78.5,334,76.4,329.7z"/>
	<g>
		<path class="st12" d="M87.3,430.2c1.5,0.2,3,0,4.4-0.5c-1.4-0.6-5.4-2.6-5.4-6.8c0-5.1,3.8-8.5,7.1-8.5s13.1,6.1,13.1,15.7
			s-9.1,17.2-12,17.2S88,442.8,88,440s0.9-7.2,3.9-7.2h0.6c-1.1-0.6-5.2,0-5.2,0c-2.2,0-2.8,3.4-2.8,3.4v17.5h-2v-17.6
			C82.3,433.2,84.4,430.6,87.3,430.2z"/>
		<path class="st12" d="M75.9,430.2c-1.5,0.2-3,0-4.4-0.5c1.4-0.6,5.4-2.6,5.4-6.8c0-5.1-3.8-8.5-7.1-8.5s-13.1,6.1-13.1,15.7
			s9.1,17.2,12,17.2s6.6-4.4,6.6-7.3s-0.9-7.2-3.9-7.2h-0.6c1.1-0.6,5.2,0,5.2,0c2.2,0,2.8,3.4,2.8,3.4v17.5h2v-17.6
			C80.9,433.2,78.8,430.6,75.9,430.2z"/>
	</g>
	<rect id="manKnees" x="39.6" y="483.6" class="st14" width="275.2" height="79.4"/>
	<circle class="st3" cx="81.3" cy="523.4" r="37.6"/>
	<g>
		<path class="st12" d="M86.2,511.5c-0.5-3.1-1.2-8.5-1.5-14.1h-7.1c0.1,4.7-0.2,9.4-0.9,14.1c-2.9,1-4.5,4.1-3.5,7.1
			c0.9,2.8,4,4.4,6.8,3.6c0.5-0.1,0.9-0.3,1.3-0.6c2.7,1.5,6.2,0.4,7.6-2.3c1.4-2.6,0.5-5.8-1.9-7.4
			C86.7,511.7,86.5,511.6,86.2,511.5z"/>
		<path class="st12" d="M78.3,536.2c0.2,3.6,0.4,8.6,0.4,13.7h7c-0.2-5-0.1-10.2,1-14c2.9-1,4.5-4.1,3.5-7.1c-0.9-2.8-4-4.4-6.8-3.6
			c-0.5,0.2-1,0.4-1.4,0.6c-2.7-1.5-6.2-0.6-7.7,2.1c-1.5,2.7-0.6,6.2,2.1,7.7C77,535.9,77.6,536.1,78.3,536.2z"/>
	</g>
	<path class="st12" d="M84.9,627.8c0-7.3,0.1-21.2,1.6-27.5c2.8-0.8,4.5-3.8,3.7-6.6s-3.6-4.5-6.5-3.7h-0.1
		c-0.4,0.1-0.8,0.3-1.2,0.5c-2.5-1.6-5.8-0.9-7.4,1.6s-0.9,5.8,1.6,7.4l0,0c0.2,0.1,0.5,0.3,0.7,0.4c0.7,5.8,1.9,19.9-0.7,27.9
		c-2.8,0.8-4.5,3.8-3.7,6.6s3.6,4.5,6.5,3.7h0.1c0.4-0.1,0.7-0.3,1.1-0.4c2.5,1.6,5.8,0.9,7.4-1.5c1.6-2.5,0.9-5.8-1.5-7.4
		c-0.1-0.1-0.2-0.1-0.3-0.2C85.9,628.1,85.4,627.8,84.9,627.8z"/>
	<path class="st12" d="M64,686.8c0,0,1.8,4.5,1.5,8c-0.1,2.4-0.3,4.8-0.8,7.2c-0.4,1.4-3,7.6,1,10c2.7,0.4,5.5,0.3,8.2-0.3
		c2.1-0.4,4.3-0.1,6.2,0.8c0,0,11.2,4.5,19,1.2c1.5-0.1,3-0.4,4.4-0.8c0,0,6.4-3.1,3.1-5.5c0,0-3.5-0.1-4.2,0.3c0,0-2.1-1-3.5-0.6
		c0,0-4.5-1.5-5.4-2.8s-9.1-8.5-10.3-9.5s-4.9-8.3-5.7-9.6c-0.5-1-1-2.1-1.3-3.2L64,686.8z"/>
</g>
<g id="woman">
	<rect x="503" y="0.5" class="st15" width="503" height="813.5"/>
	<g class="st1">
		<rect x="503" y="1" class="st2" width="503" height="1.5"/>
		<rect x="503" y="5.9" class="st2" width="503" height="1.5"/>
		<rect x="503" y="10.8" class="st2" width="503" height="1.5"/>
		<rect x="503" y="15.7" class="st2" width="503" height="1.5"/>
		<rect x="503" y="20.6" class="st2" width="503" height="1.5"/>
		<rect x="503" y="25.5" class="st2" width="503" height="1.5"/>
		<rect x="503" y="30.4" class="st2" width="503" height="1.5"/>
		<rect x="503" y="35.3" class="st2" width="503" height="1.5"/>
		<rect x="503" y="40.1" class="st2" width="503" height="1.5"/>
		<rect x="503" y="45" class="st2" width="503" height="1.5"/>
		<rect x="503" y="49.9" class="st2" width="503" height="1.5"/>
		<rect x="503" y="54.8" class="st2" width="503" height="1.5"/>
		<rect x="503" y="59.7" class="st2" width="503" height="1.5"/>
		<rect x="503" y="64.6" class="st2" width="503" height="1.5"/>
		<rect x="503" y="69.5" class="st2" width="503" height="1.5"/>
		<rect x="503" y="74.4" class="st2" width="503" height="1.5"/>
		<rect x="503" y="79.3" class="st2" width="503" height="1.5"/>
		<rect x="503" y="84.2" class="st2" width="503" height="1.5"/>
		<rect x="503" y="89.1" class="st2" width="503" height="1.5"/>
		<rect x="503" y="94" class="st2" width="503" height="1.5"/>
		<rect x="503" y="98.9" class="st2" width="503" height="1.5"/>
		<rect x="503" y="103.8" class="st2" width="503" height="1.5"/>
		<rect x="503" y="108.6" class="st2" width="503" height="1.5"/>
		<rect x="503" y="113.5" class="st2" width="503" height="1.5"/>
		<rect x="503" y="118.4" class="st2" width="503" height="1.5"/>
		<rect x="503" y="123.3" class="st2" width="503" height="1.5"/>
		<rect x="503" y="128.2" class="st2" width="503" height="1.5"/>
		<rect x="503" y="133.1" class="st2" width="503" height="1.5"/>
		<rect x="503" y="138" class="st2" width="503" height="1.5"/>
		<rect x="503" y="142.9" class="st2" width="503" height="1.5"/>
		<rect x="503" y="147.8" class="st2" width="503" height="1.5"/>
		<rect x="503" y="152.7" class="st2" width="503" height="1.5"/>
		<rect x="503" y="157.6" class="st2" width="503" height="1.5"/>
		<rect x="503" y="162.5" class="st2" width="503" height="1.5"/>
		<rect x="503" y="167.4" class="st2" width="503" height="1.5"/>
		<rect x="503" y="172.2" class="st2" width="503" height="1.5"/>
		<rect x="503" y="177.1" class="st2" width="503" height="1.5"/>
		<rect x="503" y="182" class="st2" width="503" height="1.5"/>
		<rect x="503" y="186.9" class="st2" width="503" height="1.5"/>
		<rect x="503" y="191.8" class="st2" width="503" height="1.5"/>
		<rect x="503" y="196.7" class="st2" width="503" height="1.5"/>
		<rect x="503" y="201.6" class="st2" width="503" height="1.5"/>
		<rect x="503" y="206.5" class="st2" width="503" height="1.5"/>
		<rect x="503" y="211.4" class="st2" width="503" height="1.5"/>
		<rect x="503" y="216.3" class="st2" width="503" height="1.5"/>
		<rect x="503" y="221.2" class="st2" width="503" height="1.5"/>
		<rect x="503" y="226.1" class="st2" width="503" height="1.5"/>
		<rect x="503" y="231" class="st2" width="503" height="1.5"/>
		<rect x="503" y="235.9" class="st2" width="503" height="1.5"/>
		<rect x="503" y="240.7" class="st2" width="503" height="1.5"/>
		<rect x="503" y="245.6" class="st2" width="503" height="1.5"/>
		<rect x="503" y="250.5" class="st2" width="503" height="1.5"/>
		<rect x="503" y="255.4" class="st2" width="503" height="1.5"/>
		<rect x="503" y="260.3" class="st2" width="503" height="1.5"/>
		<rect x="503" y="265.2" class="st2" width="503" height="1.5"/>
		<rect x="503" y="270.1" class="st2" width="503" height="1.5"/>
		<rect x="503" y="275" class="st2" width="503" height="1.5"/>
		<rect x="503" y="279.9" class="st2" width="503" height="1.5"/>
		<rect x="503" y="284.8" class="st2" width="503" height="1.5"/>
		<rect x="503" y="289.7" class="st2" width="503" height="1.5"/>
		<rect x="503" y="294.6" class="st2" width="503" height="1.5"/>
		<rect x="503" y="299.5" class="st2" width="503" height="1.5"/>
		<rect x="503" y="304.4" class="st2" width="503" height="1.5"/>
		<rect x="503" y="309.2" class="st2" width="503" height="1.5"/>
		<rect x="503" y="314.1" class="st2" width="503" height="1.5"/>
		<rect x="503" y="319" class="st2" width="503" height="1.5"/>
		<rect x="503" y="323.9" class="st2" width="503" height="1.5"/>
		<rect x="503" y="328.8" class="st2" width="503" height="1.5"/>
		<rect x="503" y="333.7" class="st2" width="503" height="1.5"/>
		<rect x="503" y="338.6" class="st2" width="503" height="1.5"/>
		<rect x="503" y="343.5" class="st2" width="503" height="1.5"/>
		<rect x="503" y="348.4" class="st2" width="503" height="1.5"/>
		<rect x="503" y="353.3" class="st2" width="503" height="1.5"/>
		<rect x="503" y="358.2" class="st2" width="503" height="1.5"/>
		<rect x="503" y="363.1" class="st2" width="503" height="1.5"/>
		<rect x="503" y="368" class="st2" width="503" height="1.5"/>
		<rect x="503" y="372.8" class="st2" width="503" height="1.5"/>
		<rect x="503" y="377.6" class="st2" width="503" height="1.5"/>
		<rect x="503" y="382.5" class="st2" width="503" height="1.5"/>
		<rect x="503" y="387.5" class="st2" width="503" height="1.5"/>
		<rect x="503" y="392.4" class="st2" width="503" height="1.5"/>
		<rect x="503" y="397.3" class="st2" width="503" height="1.5"/>
		<rect x="503" y="402.1" class="st2" width="503" height="1.5"/>
		<rect x="503" y="407" class="st2" width="503" height="1.5"/>
		<rect x="503" y="412" class="st2" width="503" height="1.5"/>
		<rect x="503" y="416.9" class="st2" width="503" height="1.5"/>
		<rect x="503" y="421.8" class="st2" width="503" height="1.5"/>
		<rect x="503" y="426.6" class="st2" width="503" height="1.5"/>
		<rect x="503" y="431.5" class="st2" width="503" height="1.5"/>
		<rect x="503" y="436.5" class="st2" width="503" height="1.5"/>
		<rect x="503" y="441.3" class="st2" width="503" height="1.5"/>
		<rect x="503" y="446.1" class="st2" width="503" height="1.5"/>
		<rect x="503" y="451" class="st2" width="503" height="1.5"/>
		<rect x="503" y="455.9" class="st2" width="503" height="1.5"/>
		<rect x="503" y="460.8" class="st2" width="503" height="1.5"/>
		<rect x="503" y="465.7" class="st2" width="503" height="1.5"/>
		<rect x="503" y="470.6" class="st2" width="503" height="1.5"/>
		<rect x="503" y="475.5" class="st2" width="503" height="1.5"/>
		<rect x="503" y="480.4" class="st2" width="503" height="1.5"/>
		<rect x="503" y="485.3" class="st2" width="503" height="1.5"/>
		<rect x="503" y="490.2" class="st2" width="503" height="1.5"/>
		<rect x="503" y="495.1" class="st2" width="503" height="1.5"/>
		<rect x="503" y="500" class="st2" width="503" height="1.5"/>
		<rect x="503" y="504.8" class="st2" width="503" height="1.5"/>
		<rect x="503" y="509.7" class="st2" width="503" height="1.5"/>
		<rect x="503" y="514.5" class="st2" width="503" height="1.5"/>
		<rect x="503" y="519.5" class="st2" width="503" height="1.5"/>
		<rect x="503" y="524.4" class="st2" width="503" height="1.5"/>
		<rect x="503" y="529.3" class="st2" width="503" height="1.5"/>
		<rect x="503" y="534.2" class="st2" width="503" height="1.5"/>
		<rect x="503" y="539" class="st2" width="503" height="1.5"/>
		<rect x="503" y="544" class="st2" width="503" height="1.5"/>
		<rect x="503" y="548.9" class="st2" width="503" height="1.5"/>
		<rect x="503" y="553.8" class="st2" width="503" height="1.5"/>
		<rect x="503" y="558.7" class="st2" width="503" height="1.5"/>
		<rect x="503" y="563.5" class="st2" width="503" height="1.5"/>
		<rect x="503" y="568.5" class="st2" width="503" height="1.5"/>
		<rect x="503" y="573.3" class="st2" width="503" height="1.5"/>
		<rect x="503" y="578.2" class="st2" width="503" height="1.5"/>
		<rect x="503" y="583" class="st2" width="503" height="1.5"/>
		<rect x="503" y="588" class="st2" width="503" height="1.5"/>
		<rect x="503" y="592.9" class="st2" width="503" height="1.5"/>
		<rect x="503" y="597.8" class="st2" width="503" height="1.5"/>
		<rect x="503" y="602.7" class="st2" width="503" height="1.5"/>
		<rect x="503" y="607.5" class="st2" width="503" height="1.5"/>
		<rect x="503" y="612.5" class="st2" width="503" height="1.5"/>
		<rect x="503" y="617.4" class="st2" width="503" height="1.5"/>
		<rect x="503" y="622.3" class="st2" width="503" height="1.5"/>
		<rect x="503" y="627.2" class="st2" width="503" height="1.5"/>
		<rect x="503" y="632" class="st2" width="503" height="1.5"/>
		<rect x="503" y="636.9" class="st2" width="503" height="1.5"/>
		<rect x="503" y="641.8" class="st2" width="503" height="1.5"/>
		<rect x="503" y="646.7" class="st2" width="503" height="1.5"/>
		<rect x="503" y="651.5" class="st2" width="503" height="1.5"/>
		<rect x="503" y="656.5" class="st2" width="503" height="1.5"/>
		<rect x="503" y="661.4" class="st2" width="503" height="1.5"/>
		<rect x="503" y="666.3" class="st2" width="503" height="1.5"/>
		<rect x="503" y="671.2" class="st2" width="503" height="1.5"/>
		<rect x="503" y="676" class="st2" width="503" height="1.5"/>
		<rect x="503" y="681" class="st2" width="503" height="1.5"/>
		<rect x="503" y="685.9" class="st2" width="503" height="1.5"/>
		<rect x="503" y="690.8" class="st2" width="503" height="1.5"/>
		<rect x="503" y="695.7" class="st2" width="503" height="1.5"/>
		<rect x="503" y="700.5" class="st2" width="503" height="1.5"/>
		<rect x="503" y="705.4" class="st2" width="503" height="1.5"/>
		<rect x="503" y="710.3" class="st2" width="503" height="1.5"/>
		<rect x="503" y="715.2" class="st2" width="503" height="1.5"/>
		<rect x="503" y="720" class="st2" width="503" height="1.5"/>
		<rect x="503" y="725" class="st2" width="503" height="1.5"/>
		<rect x="503" y="729.9" class="st2" width="503" height="1.5"/>
		<rect x="503" y="734.8" class="st2" width="503" height="1.5"/>
		<rect x="503" y="739.7" class="st2" width="503" height="1.5"/>
		<rect x="503" y="744.5" class="st2" width="503" height="1.5"/>
		<rect x="503" y="749.5" class="st2" width="503" height="1.5"/>
		<rect x="503" y="754.4" class="st2" width="503" height="1.5"/>
		<rect x="503" y="759.3" class="st2" width="503" height="1.5"/>
		<rect x="503" y="764.2" class="st2" width="503" height="1.5"/>
		<rect x="503" y="769" class="st2" width="503" height="1.5"/>
		<rect x="503" y="773.9" class="st2" width="503" height="1.5"/>
		<rect x="503" y="778.8" class="st2" width="503" height="1.5"/>
		<rect x="503" y="783.7" class="st2" width="503" height="1.5"/>
		<rect x="503" y="788.5" class="st2" width="503" height="1.5"/>
		<rect x="503" y="793.5" class="st2" width="503" height="1.5"/>
		<rect x="503" y="798.4" class="st2" width="503" height="1.5"/>
		<rect x="503" y="803.3" class="st2" width="503" height="1.5"/>
		<rect x="503" y="808.2" class="st2" width="503" height="1.5"/>
		<rect x="503" y="813" class="st2" width="503" height="1.4"/>
	</g>
	<path class="st16" d="M708.3,694.7c0,0,1.4,16.5,4.5,22.4c3.1,5.9,9.3,20.8,5,24.5s-24.7,5.4-27.6,2c-2.9-3.4-2.7-7.3-2-12.5
		s-0.7-9.3-0.5-18.1s-3.4-13.4-2-18.3c1.4-4.9,3.6-16.3,3.8-20.2s-0.9-14.5-2.3-25.8c-1.4-11.3,0.9-19.7-2.7-31.5s-4.5-34.2,0-53.5
		s1.6-19,0.9-21.1c-0.7-2.1-5.4-21.3-5.4-35.8s-2.7-34.7-2.7-42.8s-2.5-35.6-2-40.1s-2.5-27.4-1.8-30.6s-0.2-1.4-0.2-1.4
		s-9.7,6.3-14.7-0.7c0,0-2.7,48.9-4.1,61.6s-1.6,27-2.5,35.1s1.1,17,0.2,21.3c-0.9,4.3-3.7,26.3-6.7,35.6s-2.5,11.3-0.5,18.8
		s3.8,36.9,0.9,52.3c-2.9,15.4-2.9,34-4.5,42.4c-1.6,8.4,0.7,26.3,0.9,31.5s2.5,10.7,2.3,16.1c-0.2,5.4-1.6,17-1.4,22
		s3.6,11.8-2.7,15.6s-12.2,3-16.1,3c-3.9,0-15.2-3.4-13.4-6.6s-2.3-5.9,3.6-13.1c5.9-7.2,2.9-8.4,4.1-12.2c1-2.8,1.6-5.7,2-8.6
		c0.9-6.4,1.2-12.9,0.9-19.3c-0.5-5.7-0.2-20.2-0.7-27.9s-1.8-13.1-3.2-23.6c-1.4-10.5-3-31-6.1-46.9c-3.1-15.9-1.8-22.7-0.2-31.5
		c1.6-8.8,0.2-23.8-0.2-32.6s1.1-26.5,0.2-33.3c-0.9-6.8-14.5-54.4-13.6-80c0.9-25.6,0-42.4,2.3-55c2.3-12.6,7-29.7,9.3-40.1
		s8.8-17.7,10-29.7s0.5-35.8,0.5-35.8s-3.8-32.4-6.8-42.1c0,0-0.7,12.5-1.1,21.1c-0.4,8.6-2.5,35.3-3.8,41.9s-1.4,14.5-3.2,18.4
		s-2.9,10.9-4.1,18.8s-4.5,34.2-7.7,40.8s-4.1,13.8-6.6,22.4c-2.1,6.9-2.8,14.1-2,21.3c0.7,5.2,2.3,19.9,2.3,27.4s0.2,15.6-2.3,16.8
		c0,0-2-0.2-2.3-4.3c0,0,0.5-10,0.2-12c-0.3-2-1.6-5-2.5-2.9c-0.9,2.1-1.1,9.1-1.4,12c-0.3,2.9-1.4,14.3-3.6,15c0,0-2.3,0.7-2-4.8
		c0.3-5.5,0.2-6.6,0.2-11.3s0.9-10-0.5-10.2s-3,3.4-3.2,6.1c-0.2,2.7-2,11.3-2.3,15.2s-2.3,7.9-3.8,7.9s-1.8-5.4-1.8-10
		s0.9-15.9,0.9-16.8s-2.5-1.1-3,0.7s-3.4,18.1-4.8,20.4c-1.4,2.3-2.9,2.7-3.6,2c-0.7-0.7-1.3-8.4-0.5-12.5
		c0.8-4.1,2.5-12.2,2.9-15.2c0.3-2.7,0.5-5.5,0.5-8.2c-1.2,0.4-2.1,1.3-2.5,2.5c-0.5,1.8-2.5,4.3-4.1,4.3c-1.6,0-2.9-2.3-1.4-5.4
		s3.6-5.4,4.5-9.1s1.4-6.1,4.8-8.6c3.4-2.5,8.4-7.5,8.8-11.3c0.4-3.8,8.8-30.6,7.9-45.5s5.9-30.8,7.5-42.1s6.3-29,6.3-43
		s1.1-35.1,1.4-42.6s-4.8-20.2-2.5-30.8s6.1-18.1,11.8-23.1s14.7-5.2,22-6.1s24.9-13.4,28.3-20.2c3.4-6.8,3.6-22.4-0.2-27
		c0,0-4.5-4.8-6.1-19.9c0,0-3.4-28.8,4.5-38.7c0,0,8.2-10,20.2-10.2c0,0,20.4,0.7,24.2,14.5c0,0,10.9,31.5-4.5,55.5
		c0,0-2.7,5.7-2.7,10s0,13.6,2.5,17c2.5,3.4,18.3,16.8,26.5,18.8s20.2,0,28.1,11.8c7.9,11.8,7.5,18.4,6.8,27
		c-0.7,8.6-3.2,18.4-3.4,22.6s2.5,30.6,1.8,39.2c-0.6,6.5-0.6,13,0.2,19.5c0.7,4.8,0,15,3.8,21.3c3.8,6.3,9.1,27.4,8.8,38.3
		c-0.3,10.9,2.7,28.8,5.7,36.7s2.7,17,3.4,18.6l-0.7-1.6c0,0,8.2,10.9,11.5,13.8s5.9,10.9,7,14.5s0.7,8.8-2.7,4.1s-5-6.6-5-6.6
		s-0.2,4.3-0.2,6.6s1.6,11.3,3,16.5s4.3,13.8,1.4,15c0,0-3.6-0.7-5.4-8.2c0,0-4.1-16.1-5.9-17.4c0,0-0.7,7.3,0,11.1
		c0.7,3.8,2,17-1.6,17.4c0,0-2.9-0.5-3.2-9.5c0,0-3.2-16.1-4.8-18.1c-1,3-1.6,6.1-1.6,9.3c0.2,4.3,0.5,16.5-1.6,15.4
		c0,0-3.4,1.1-3.2-6.8c0,0-1.1-7.7-1.1-10.9s-1.1-10.6-1.8-9.3c-0.7,1.3-0.9,13.4-1.1,16.3s-2.3,3.4-3,2.5s-2.3-9-2.3-12.3
		s-0.5-11.3-0.2-15.9s1.8-8.8,2.7-14.5c0.9-5.7,2.3-6.1,1.4-11.5c-0.9-5.4-4.1-12.7-7-22.9c-2.9-10.2-6.1-20.4-7.3-30.1
		s-6.6-28.3-7.3-36.9s-3.8-18.6-5.4-26.3c-1.6-7.7-2.5-34.7-2.3-40.3s-0.5-23.1-1.8-15.9s-1.8,31.3-2.9,38.3
		c-1.1,7-4.1,35.6-1.6,43.7s9.1,20.2,10.9,27.4s9.5,42.8,9.1,56.2c-0.4,13.4,1.8,47.3-2,64.5s-8.6,35.6-9.7,46.2s-1.1,17.9-1.6,31.5
		c-0.5,13.6-0.2,22.2,0.2,30.4c0.4,8.2,1.1,31-0.5,41.7c-1.6,10.7-2.5,25.4-4.8,34.7s-4.1,32.8-4.8,41.9c-0.7,9.1-1.8,20.4-1.4,27.9
		"/>
	<path id="womanSvg" class="st17" d="M666,31.1h-0.5c-12,0.2-20.2,10.2-20.2,10.2c-7.9,10-7.8,36.3-7.8,36.3
		c1.6,15.2,9.4,22.3,9.4,22.3c3.9,4.5,3.6,20.2,0.2,27s-21.1,19.2-28.3,20.2s-16.3,1.1-22,6.1s-9.5,12.5-11.8,23.1
		c-2.3,10.6,2.7,23.3,2.5,30.8c-0.2,7.5-1.4,28.5-1.4,42.6s-4.8,31.7-6.3,43s-8.4,27.2-7.5,42.1c0.9,14.9-7.5,41.7-7.9,45.5
		c-0.4,3.8-5.4,8.8-8.8,11.3s-3.8,5-4.8,8.6s-2.9,5.9-4.5,9.1c-1.6,3.2-0.2,5.4,1.4,5.4c1.6,0,3.6-2.5,4.1-4.3
		c0.4-1.2,1.3-2.1,2.5-2.5c0,2.7-0.1,5.5-0.5,8.2c-0.5,2.9-2,11.1-2.9,15.2c-0.9,4.1-0.2,11.8,0.5,12.5s2.3,0.2,3.6-2
		c1.3-2.2,4.3-18.6,4.8-20.4s3-1.6,3-0.7s-0.9,12.2-0.9,16.8s0.2,10,1.8,10c1.6,0,3.6-4.1,3.8-7.9c0.2-3.8,2-12.5,2.3-15.2
		s1.8-6.4,3.2-6.1c1.4,0.3,0.5,5.4,0.5,10.2s0,5.9-0.2,11.3s2,4.8,2,4.8c2.3-0.7,3.4-12,3.6-15s0.5-10,1.4-12c0.9-2,2.3,0.9,2.5,2.9
		s-0.2,12-0.2,12c0.2,4.1,2.3,4.3,2.3,4.3c2.5-1.1,2.3-9.3,2.3-16.8s-1.6-22.2-2.3-27.4c-0.8-7.2-0.1-14.4,2-21.3
		c2.5-8.6,3.4-15.9,6.6-22.4c3.2-6.5,6.6-32.8,7.7-40.8c1.1-8,2.3-15,4.1-18.8s1.8-11.8,3.2-18.4c1.4-6.6,3.4-33.3,3.8-41.9
		c0.4-8.6,1.1-21.1,1.1-21.1c2.9,9.7,6.8,42.1,6.8,42.1s0.7,23.8-0.5,35.8c-1.2,12-7.7,19.3-10,29.7c-2.3,10.4-7,27.4-9.3,40.1
		s-1.4,29.5-2.3,55s12.7,73.2,13.6,80c0.9,6.8-0.7,24.5-0.2,33.3s1.8,23.8,0.2,32.6c-1.6,8.8-3,15.6,0.2,31.5s4.9,36.3,6.3,46.8
		c1.4,10.5,2.7,15.9,3.2,23.6s0.2,22.2,0.7,27.9c0.3,6.5,0,12.9-0.9,19.3c-0.4,2.9-1,5.8-2,8.6c-1.1,3.8,1.8,5-4.1,12.2
		s-1.8,10-3.6,13.1c-1.8,3.1,9.5,6.6,13.4,6.6c3.9,0,9.7,0.9,16.1-3c6.4-3.9,2.9-10.6,2.7-15.6c-0.2-5,1.1-16.5,1.4-22
		s-2-10.9-2.3-16.1c-0.3-5.2-2.5-23.1-0.9-31.5s1.6-27,4.5-42.4s1.1-44.8-0.9-52.3s-2.5-9.5,0.5-18.8s5.7-31.3,6.6-35.6
		s-1.1-13-0.2-21.2c0.9-8.2,1.1-22.4,2.5-35.1c1.4-12.7,4.1-61.7,4.1-61.7c1.7,2.4,4.7,3.7,7.6,3.2L666,31.1L666,31.1z"/>
	<rect id="womanFeet" x="665.9" y="670.9" class="st18" width="282" height="81.5"/>
	<ellipse class="st16" cx="905.2" cy="711.5" rx="38.5" ry="38.5"/>
	<rect id="womanShins" x="665.9" y="579.5" class="st19" width="282" height="81.5"/>
	<ellipse class="st16" cx="905.2" cy="619.5" rx="38.5" ry="38.5"/>
	<rect id="womanKidneys" x="665.9" y="396.4" class="st20" width="282" height="81.5"/>
	<ellipse class="st16" cx="905.2" cy="437.5" rx="38.5" ry="38.5"/>
	<rect id="womanStomach" x="665.9" y="305.9" class="st21" width="282" height="81.5"/>
	<ellipse class="st16" cx="905.2" cy="346.7" rx="38.5" ry="38.5"/>
	<rect id="womanLungs" x="665.9" y="214.4" class="st22" width="282" height="81.5"/>
	<ellipse class="st16" cx="905.2" cy="255.8" rx="38.5" ry="38.5"/>
	<rect id="womanShoulders" x="665.9" y="120.9" class="st23" width="282" height="81.5"/>
	<ellipse class="st16" cx="905.2" cy="163.8" rx="38.5" ry="38.5"/>
	<rect id="womanHead" x="666.7" y="30.7" class="st24" width="282" height="81.4"/>
	<ellipse class="st16" cx="905.2" cy="72.5" rx="38.5" ry="38.5"/>
	<g>
		<path class="st25" d="M906.5,49.9c0,0-0.7-3,3.4-3c0,0,4.1-0.2,3.5,2.4c0,0,4,0.9,3,2.8c0,0,4.8,0.2,3.2,3.3c0,0,2.5,0.3,1.2,2.4
			c0,0,4.3,1.6,2.4,4.3c0,0,4.1,1.3,2.2,3.4c0,0,1.8,2.4,0.5,3.3c0,0,1,2.3-0.8,3.7c0,0,3.5,6.3-0.1,9.1c0,0-0.9,5.8-2.7,6.3
			c0,0-2,4.9-3.8,4.5c0,0-2.2,1.8-2.8,1c0,0-2.7,2-3.3,1.1c0,0-4.6,3.5-4.5,0.3c0,0-2.8-0.1-2.1-1.4
			C909.1,88.4,906.5,49.9,906.5,49.9z"/>
		<path class="st25" d="M905.1,50.1c0,0,0.8-3-3.4-3.1c0,0-4.1-0.2-3.5,2.4c0,0-4,0.9-3.1,2.8c0,0-4.8,0.2-3.3,3.3
			c0,0-2.5,0.2-1.3,2.3c0,0-4.3,1.6-2.5,4.3c0,0-4.1,1.3-2.3,3.3c0,0-1.9,2.3-0.6,3.3c0,0-1.1,2.3,0.7,3.7c0,0-3.6,6.3-0.1,9.1
			c0,0,0.8,5.8,2.6,6.3c0,0,1.9,4.9,3.7,4.6c0,0,2.1,1.8,2.8,1.1c0,0,2.6,2.1,3.2,1.2c0,0,4.6,3.6,4.5,0.3c0,0,2.3,0.1,2.1-1.3
			C903.2,79.2,903.3,64.6,905.1,50.1z"/>
	</g>
	<g>
		<path class="st25" d="M919.9,169.7c0.5-0.3,0.8-0.8,0.9-1.4c0.1-1.1,0.5-2.1,1.1-3c0.3-0.5,4-9-4.2-12.6c-0.5-0.3-1-0.5-1.6-0.6
			c0,0-3.5-4.8-3.9-7.2c-0.1-0.5-0.1-1.1,0.1-1.6c0,0,0.4-3.3-2-3.4c-1.2-0.2-2.5,0.6-2.7,1.8c0,0,0,0,0,0.1l0,0
			c0,0,0.1,1.3-0.3,1.3c0,0-3.4-1.8-4.3-0.7c0,0,0-2-0.3-2.1l-1.6-0.4c-0.3,0.4-0.4,0.9-0.4,1.4c-0.5-0.2-1.1-0.4-1.7-0.4l-0.7-1.8
			c-0.5-0.2-1.1-0.3-1.7-0.2c0,0.7,0,1.3,0.1,2c-0.3,0-0.7,0-1,0.2c-0.6-0.7-1.2-1.3-1.9-1.9c-0.5,0.1-1,0.3-1.4,0.7
			c0.2,0.7,0.5,1.4,1,2c-0.7,0.6-0.7,1.6-0.1,2.3l0,0l0.3,0.3c0,0-0.1,1.7,2.8,1.8c0,0,2.7,0.1,3.3,1c0,0-9.3,0.9-10.3,2.5
			c-0.6,1.5,0.1,3.2,1.6,3.8l0,0c0.1,0,0.3,0.1,0.4,0.1h3.1c0,0-1.5,1.7-2.4,1.8c0,0-3.4,0.7-3.4,1.7c0,0,0.1,1.9,3.4,0.5l-3.1,2.1
			c0.2,0.8,1.1,1.3,1.9,1.1l0,0c0,0,0,4,1.4,3.7c-1.9,3.6-2.2,7.8-0.8,11.6c1.5,3.7,3.8,6.9,6.8,9.5l1.2,1.2
			c0.4,0.7,1.1,1.2,1.9,1.4c1,0.4,2.2,0.3,3.2-0.2c1.6-0.6,4.5-2.4,5.4-2.8c2.2-1.2,4.1-2.8,5.7-4.7
			C917.1,178.3,920.2,173.3,919.9,169.7z"/>
		<path class="st16" d="M906.2,182.2c0.8-0.8,1-1.3,0.8-3.2c-0.2-0.5,0-1.1,0.5-1.3c0.6-0.4,1-1,1.3-1.6c0.5-0.8,0.7-1.8,0.8-2.7
			c0-0.9-0.2-1.7-0.6-2.5c-0.3-0.5-0.6-1-0.8-1.6c-0.7-1.2-1.3-2.4-1.8-3.7c-0.6-1.9-4.9-4.8-5.1-4.9l-0.3,0.4c0,0,4.3,2.9,4.9,4.7
			c0.5,1.3,1.1,2.6,1.8,3.8c0.3,0.5,0.6,1,0.8,1.6c0.8,1.7,0.8,2.7-0.2,4.8c-0.3,0.6-0.7,1.1-1.2,1.5c-0.6,0.4-0.8,1.1-0.6,1.7
			c0.2,1.8,0,2.1-0.6,2.8L906.2,182.2z"/>
		<path class="st16" d="M905.8,172.1l0.5-0.1c0-0.2-0.1-0.3-0.2-0.4c-0.1,0-0.1-0.1-0.1-0.2c0.1-0.4,0.3-0.8,0.5-1.1
			c0.7-1.1,0.8-2.6,0.3-3.8l-0.5,0.2l0.2-0.1l-0.2,0.1c0.4,1.1,0.3,2.3-0.3,3.3c-0.8,1.2-0.7,1.6-0.3,1.9
			C905.7,172,905.7,172.1,905.8,172.1z"/>
		<path class="st16" d="M905.2,177.2c0.2-1,0.5-1.2,1.6-2.1l0.8-0.6c1.8-1.6,0.8-4.6,0.8-4.7l-0.5,0.2c0,0,0.9,2.8-0.6,4.2l-0.8,0.6
			c-0.9,0.5-1.5,1.4-1.8,2.4L905.2,177.2L905.2,177.2z"/>
		<path class="st16" d="M914.5,176.4c0.5-1,0.5-1.6-0.3-3.3c-0.3-0.4-0.3-1,0-1.4c0.4-0.6,0.7-1.3,0.7-2c0.2-0.9,0.1-1.9-0.1-2.8
			c-0.2-0.8-0.7-1.6-1.4-2.1l-1.3-1.3c-1-0.9-1.9-1.9-2.8-2.9c-1.2-1.6-6.2-3-6.4-3l-0.1,0.5c0,0,5,1.4,6.2,2.9
			c0.9,1.1,1.8,2.1,2.9,3c0.5,0.4,0.9,0.8,1.3,1.3c1.3,1.3,1.6,2.3,1.3,4.6c-0.1,0.6-0.3,1.3-0.6,1.8c-0.4,0.5-0.5,1.2-0.1,1.8
			c0.8,1.6,0.7,2,0.3,2.9H914.5z"/>
		<path class="st16" d="M911.6,167.5l0.4-0.2c-0.1-0.2-0.2-0.3-0.4-0.3c-0.1,0-0.2-0.1-0.2-0.2c-0.1-0.4,0-0.8,0.1-1.2
			c0.2-1.3-0.2-2.6-1.1-3.6l-0.3,0.4l0.2-0.2l-0.2,0.2c0.8,0.9,1.2,2,1,3.2C910.8,167,911,167.3,911.6,167.5L911.6,167.5
			L911.6,167.5z"/>
		<path class="st16" d="M910.9,172.4h0.5c0-1,0.3-1.3,1.2-2.4l0.6-0.8c1.5-1.9-0.1-4.6-0.1-4.8l-0.4,0.2l0.2-0.1l-0.2,0.1
			c0,0,1.5,2.6,0.2,4.2l-0.6,0.8C911.3,170.8,910.9,171.2,910.9,172.4z"/>
		<path class="st16" d="M901.1,175.2l0.4-0.2c-0.2-0.5-0.6-0.9-1-1.3c-0.4-0.4-0.8-0.8-1.2-1.2c-0.8-0.7-1.2-1.8-0.9-2.9v-1.4
			c0-2.4-3-4.7-3.1-4.8l-0.3,0.4c0,0,2.9,2.2,2.9,4.4v1.3c-0.2,1.2,0.2,2.4,1,3.3c0.3,0.5,0.7,0.9,1.2,1.2S900.9,174.7,901.1,175.2z
			"/>
		<path class="st16" d="M896,173.7l0.5-0.1c0-0.2-0.1-0.3-0.1-0.5c-0.1-0.4-0.2-0.6,1-1.9c0.9-1,1.3-2.4,1.1-3.7l-0.5,0.1
			c0.2,1.2-0.2,2.4-1,3.2c-1.2,1.4-1.2,1.7-1,2.4V173.7z"/>
		<path class="st16" d="M903.2,175.1c0-0.8-0.3-1.6-0.8-2.2c-0.2-0.3-0.3-0.6-0.5-0.9c-0.3-0.5-0.7-1-1.3-1.2
			c-0.5-0.2-0.9-0.6-1.1-1.1c-0.5-1.2-1.5-3.1-1.5-3.1l-0.4,0.2c0,0,1,1.8,1.5,3c0.3,0.6,0.7,1,1.3,1.3c0.5,0.2,0.9,0.5,1.1,1
			c0.2,0.4,0.4,0.7,0.5,0.9c0.4,0.5,0.7,1.2,0.7,1.9L903.2,175.1L903.2,175.1L903.2,175.1z"/>
		<path class="st13" d="M913.1,169.1c0,0-1,1.9-0.6,3.1s1,2.3,0.5,3.6"/>
	</g>
	<path class="st25" d="M882.6,251.9c4.1-12.3,12.5-13.9,12.5-13.9c1.7-0.8,1.8-0.9,3.8,0.3s1.5,4.8,1.4,5.9c0,0.6,0,1.2,0.1,1.8
		c1.2-0.4,2.3-1.2,3.1-2.2c0-4.6-0.6-12.4-0.6-12.4h2.9c0,0-0.4,7.3-0.3,12.1c0.7,0.9,1.7,1.6,2.7,2.1v-1.4
		c-0.1-1.1-0.6-4.7,1.4-5.9s2.2-1.1,3.8-0.3c0,0,8.3,1.6,12.5,13.9c4.2,12.3,3.7,19.7-0.5,22.1c-4.2,2.4-12.2,1.5-15.2-0.4
		s-2.1-5.5-2-7c0-2-0.2-4.1-0.5-6.1c-0.2-2.5-0.2-4.9-0.1-7.4c-0.7-0.9-1.7-1.5-2.8-1.6c-1.5,0.1-2.9,0.8-3.7,2.1
		c0.1,2.3,0.1,4.6-0.1,6.9c-0.4,2-0.6,4.1-0.5,6.1c0.1,1.5,1,5.1-2,7s-11,2.8-15.2,0.4C879.1,271.6,878.5,264.2,882.6,251.9z"/>
	<path class="st25" d="M910.1,330.1c0,0-0.5-2.1-3.5-1.7c0,0-2.2,4.2-6.1,3.5c-1.2-0.8-2.3-1.7-3.3-2.6c-1.9-2.3-5.1-3.1-7.8-1.9
		c-1.9,1-3.3,2.6-4.1,4.5c0,0-2.6,6,1.8,15.3c0,0,6.2,13.4,19.5,12.6c0,0,7.9-1.3,7.3-5.9c-0.7-1.4,0-3.1,1.4-3.8l0,0
		c0.2-0.1,0.3-0.1,0.5-0.2c1.1-0.3,2.2,0.3,2.5,1.3c0,0,0,0,0,0.1l0,0c1.3,2.6,1.8,5.6,1.4,8.5c-0.3,3.8-2.1,7.4-5.1,9.8
		c0,0,3.7,0.4,2.4,3.8c0,0,3.5-2.1,5.6-8.1c1.1-4.6,1.2-9.4,0.4-14.1c0,0-0.7-4.3-3.5-5.7c0,0-2.9-2.4-6.8,1c-1.2,1.6-3.2,2.4-5.2,2
		c0,0-4.5-1-5.8-3.8c0,0-2.1-3.7,0.1-6.3C901.8,338.3,908,334.5,910.1,330.1z"/>
	<g>
		<path class="st25" d="M898.9,433.2c-1.5,0.2-3.1,0-4.5-0.5c1.4-0.6,5.6-2.6,5.6-7c0-5.3-3.9-8.7-7.3-8.7s-13.5,6.2-13.5,16.1
			s9.3,17.6,12.3,17.6s6.8-4.5,6.8-7.4s-1-7.4-4-7.4h-0.6c1.2-0.6,5.3,0,5.3,0c2.2,0,2.9,3.5,2.9,3.5v17.9h2.1v-18
			C904.2,436.2,902,433.5,898.9,433.2z"/>
		<path class="st25" d="M910.7,433.2c1.5,0.2,3.1,0,4.5-0.5c-1.4-0.6-5.6-2.6-5.6-7c0-5.3,3.9-8.7,7.3-8.7c3.4,0,13.5,6.2,13.5,16.1
			s-9.3,17.6-12.3,17.6s-6.8-4.5-6.8-7.4s1-7.4,4-7.4h0.6c-1.2-0.6-5.3,0-5.3,0c-2.2,0-2.9,3.5-2.9,3.5v17.9h-2.1v-18
			C905.4,436.2,907.6,433.5,910.7,433.2z"/>
	</g>
	<rect id="womanKnees" x="665.9" y="487.9" class="st26" width="282" height="81.4"/>
	<ellipse class="st16" cx="905.2" cy="528.7" rx="38.5" ry="38.5"/>
	<g>
		<path class="st25" d="M900.1,516.5c0.5-3.2,1.2-8.7,1.5-14.5h7.2c-0.1,4.8,0.2,9.6,0.9,14.4c4.1,2.6,5.3,8.1,2.7,12.2
			c-2.6,4.1-8.1,5.3-12.2,2.7s-5.3-8.1-2.7-12.2l0,0C898.2,518,899.1,517.2,900.1,516.5z"/>
		<path class="st25" d="M908.3,541.8c-0.2,3.6-0.4,8.8-0.4,14h-7.2c0.3-4.8,0-9.7-1-14.4c-4.5-2.5-6-8.2-3.5-12.7s8.2-6,12.7-3.5
			s6,8.2,3.5,12.7l0,0C911.5,539.5,910,541,908.3,541.8z"/>
	</g>
	<path class="st25" d="M901.5,635.7c0-7.5-0.1-21.7-1.6-28.2c-4-2.3-5.4-7.5-3-11.5c2.3-4,7.5-5.4,11.5-3c4,2.3,5.4,7.5,3,11.5l0,0
		c-0.6,1-1.4,1.9-2.3,2.6c-0.7,5.9-2,20.4,0.7,28.6c4.4,2.2,6.1,7.5,3.9,11.9s-7.5,6.1-11.9,3.9c-4.4-2.2-6.1-7.5-3.9-11.9l0,0
		C898.6,637.9,899.9,636.5,901.5,635.7z"/>
	<path class="st25" d="M922.8,696.3c0,0-1.8,4.6-1.6,8.2c0.1,2.5,0.3,5,0.8,7.4c0.4,1.5,3,7.8-1,10.3c-2.8,0.4-5.6,0.3-8.4-0.3
		c-2.1-0.4-4.3-0.2-6.3,0.8c0,0-11.5,4.6-19.5,1.2c-1.5-0.1-3-0.4-4.5-0.8c0,0-6.6-3.2-3.2-5.7c0,0,3.5-0.1,4.3,0.3
		c1.1-0.5,2.3-0.8,3.5-0.7c0,0,4.6-1.6,5.5-2.9s9.3-8.7,10.5-9.7s5-8.5,5.8-9.9c0.6-1,1-2.1,1.3-3.3L922.8,696.3z"/>
</g>
</svg>
