<?xml version="1.0" encoding="utf-8"?>
<!-- Generator: Adobe Illustrator 19.2.1, SVG Export Plug-In . SVG Version: 6.00 Build 0)  -->
<svg version="1.1" id="Calque_1" xmlns="http://www.w3.org/2000/svg" xmlns:xlink="http://www.w3.org/1999/xlink" x="0px" y="0px"
	 viewBox="0 0 503 814" style="enable-background:new 0 0 503 814;" xml:space="preserve">
<style type="text/css">
	.st0{fill:#EFD3B9;}
	.st1{opacity:0.5;}
	.st2{opacity:0.1;fill:#1C1D00;enable-background:new    ;}
	.st3{fill:#C93325;}
	.st4{fill:#B32F1F;}
	.st5{opacity:0.4;fill:#C1C100;enable-background:new    ;}
	.st6{opacity:0.4;fill:#BFB10B;enable-background:new    ;}
	.st7{opacity:0.4;fill:#BB9318;enable-background:new    ;}
	.st8{opacity:0.4;fill:#BA841B;enable-background:new    ;}
	.st9{opacity:0.4;fill:#B55B1F;enable-background:new    ;}
	.st10{opacity:0.4;fill:#B4471F;enable-background:new    ;}
	.st11{opacity:0.4;fill:#B12B1F;enable-background:new    ;}
	.st12{fill:#DCC9A0;}
	.st13{fill:none;}
	.st14{opacity:0.4;fill:#BDA413;enable-background:new    ;}
</style>
<title>bodies</title>
<g id="Capa_1">
	<rect x="1.3" y="0.5" class="st0" width="501.7" height="813.5"/>
	<g class="st1">
		<rect class="st2" width="501.7" height="1.5"/>
		<rect y="4.8" class="st2" width="501.7" height="1.5"/>
		<rect y="9.6" class="st2" width="501.7" height="1.5"/>
		<rect y="14.4" class="st2" width="501.7" height="1.5"/>
		<rect y="19.1" class="st2" width="501.7" height="1.5"/>
		<rect y="23.9" class="st2" width="501.7" height="1.5"/>
		<rect y="28.7" class="st2" width="501.7" height="1.5"/>
		<rect y="33.5" class="st2" width="501.7" height="1.5"/>
		<rect y="38.3" class="st2" width="501.7" height="1.5"/>
		<rect y="43.1" class="st2" width="501.7" height="1.5"/>
		<rect y="47.8" class="st2" width="501.7" height="1.5"/>
		<rect y="52.6" class="st2" width="501.7" height="1.5"/>
		<rect y="57.4" class="st2" width="501.7" height="1.5"/>
		<rect y="62.2" class="st2" width="501.7" height="1.5"/>
		<rect y="67" class="st2" width="501.7" height="1.5"/>
		<rect y="71.8" class="st2" width="501.7" height="1.5"/>
		<rect y="76.6" class="st2" width="501.7" height="1.5"/>
		<rect y="81.3" class="st2" width="501.7" height="1.5"/>
		<rect y="86.1" class="st2" width="501.7" height="1.5"/>
		<rect y="90.9" class="st2" width="501.7" height="1.5"/>
		<rect y="95.7" class="st2" width="501.7" height="1.5"/>
		<rect y="100.5" class="st2" width="501.7" height="1.5"/>
		<rect y="105.3" class="st2" width="501.7" height="1.5"/>
		<rect y="110" class="st2" width="501.7" height="1.5"/>
		<rect y="114.8" class="st2" width="501.7" height="1.5"/>
		<rect y="119.6" class="st2" width="501.7" height="1.5"/>
		<rect y="124.4" class="st2" width="501.7" height="1.5"/>
		<rect y="129.2" class="st2" width="501.7" height="1.5"/>
		<rect y="134" class="st2" width="501.7" height="1.5"/>
		<rect y="138.8" class="st2" width="501.7" height="1.5"/>
		<rect y="143.5" class="st2" width="501.7" height="1.5"/>
		<rect y="148.3" class="st2" width="501.7" height="1.5"/>
		<rect y="153.1" class="st2" width="501.7" height="1.5"/>
		<rect y="157.9" class="st2" width="501.7" height="1.5"/>
		<rect y="162.7" class="st2" width="501.7" height="1.5"/>
		<rect y="167.5" class="st2" width="501.7" height="1.5"/>
		<rect y="172.2" class="st2" width="501.7" height="1.5"/>
		<rect y="177" class="st2" width="501.7" height="1.5"/>
		<rect y="181.8" class="st2" width="501.7" height="1.5"/>
		<rect y="186.6" class="st2" width="501.7" height="1.5"/>
		<rect y="191.4" class="st2" width="501.7" height="1.5"/>
		<rect y="196.2" class="st2" width="501.7" height="1.5"/>
		<rect y="200.9" class="st2" width="501.7" height="1.5"/>
		<rect y="205.7" class="st2" width="501.7" height="1.5"/>
		<rect y="210.5" class="st2" width="501.7" height="1.5"/>
		<rect y="215.3" class="st2" width="501.7" height="1.5"/>
		<rect y="220.1" class="st2" width="501.7" height="1.5"/>
		<rect y="224.9" class="st2" width="501.7" height="1.5"/>
		<rect y="229.7" class="st2" width="501.7" height="1.5"/>
		<rect y="234.4" class="st2" width="501.7" height="1.5"/>
		<rect y="239.2" class="st2" width="501.7" height="1.5"/>
		<rect y="244" class="st2" width="501.7" height="1.5"/>
		<rect y="248.8" class="st2" width="501.7" height="1.5"/>
		<rect y="253.6" class="st2" width="501.7" height="1.5"/>
		<rect y="258.4" class="st2" width="501.7" height="1.5"/>
		<rect y="263.1" class="st2" width="501.7" height="1.5"/>
		<rect y="267.9" class="st2" width="501.7" height="1.5"/>
		<rect y="272.7" class="st2" width="501.7" height="1.5"/>
		<rect y="277.5" class="st2" width="501.7" height="1.5"/>
		<rect y="282.3" class="st2" width="501.7" height="1.5"/>
		<rect y="287.1" class="st2" width="501.7" height="1.5"/>
		<rect y="291.9" class="st2" width="501.7" height="1.5"/>
		<rect y="296.6" class="st2" width="501.7" height="1.5"/>
		<rect y="301.4" class="st2" width="501.7" height="1.5"/>
		<rect y="306.2" class="st2" width="501.7" height="1.5"/>
		<rect y="311" class="st2" width="501.7" height="1.5"/>
		<rect y="315.8" class="st2" width="501.7" height="1.5"/>
		<rect y="320.6" class="st2" width="501.7" height="1.5"/>
		<rect y="325.4" class="st2" width="501.7" height="1.5"/>
		<rect y="330.1" class="st2" width="501.7" height="1.5"/>
		<rect y="334.9" class="st2" width="501.7" height="1.5"/>
		<rect y="339.7" class="st2" width="501.7" height="1.5"/>
		<rect y="344.5" class="st2" width="501.7" height="1.5"/>
		<rect y="349.3" class="st2" width="501.7" height="1.5"/>
		<rect y="354" class="st2" width="501.7" height="1.5"/>
		<rect y="358.8" class="st2" width="501.7" height="1.5"/>
		<rect y="363.6" class="st2" width="501.7" height="1.5"/>
		<rect y="368.4" class="st2" width="501.7" height="1.5"/>
		<rect y="373.2" class="st2" width="501.7" height="1.5"/>
		<rect y="378" class="st2" width="501.7" height="1.5"/>
		<rect y="382.8" class="st2" width="501.7" height="1.5"/>
		<rect y="387.5" class="st2" width="501.7" height="1.5"/>
		<rect y="392.3" class="st2" width="501.7" height="1.5"/>
		<rect y="397.1" class="st2" width="501.7" height="1.5"/>
		<rect y="401.9" class="st2" width="501.7" height="1.5"/>
		<rect y="406.7" class="st2" width="501.7" height="1.5"/>
		<rect y="411.5" class="st2" width="501.7" height="1.5"/>
		<rect y="416.3" class="st2" width="501.7" height="1.5"/>
		<rect y="421" class="st2" width="501.7" height="1.5"/>
		<rect y="425.8" class="st2" width="501.7" height="1.5"/>
		<rect y="430.6" class="st2" width="501.7" height="1.5"/>
		<rect y="435.4" class="st2" width="501.7" height="1.5"/>
		<rect y="440.2" class="st2" width="501.7" height="1.5"/>
		<rect y="445" class="st2" width="501.7" height="1.5"/>
		<rect y="449.7" class="st2" width="501.7" height="1.5"/>
		<rect y="454.5" class="st2" width="501.7" height="1.5"/>
		<rect y="459.3" class="st2" width="501.7" height="1.5"/>
		<rect y="464.1" class="st2" width="501.7" height="1.5"/>
		<rect y="468.9" class="st2" width="501.7" height="1.5"/>
		<rect y="473.7" class="st2" width="501.7" height="1.5"/>
		<rect y="478.5" class="st2" width="501.7" height="1.5"/>
		<rect y="483.2" class="st2" width="501.7" height="1.5"/>
		<rect y="488" class="st2" width="501.7" height="1.5"/>
		<rect y="492.8" class="st2" width="501.7" height="1.5"/>
		<rect y="497.6" class="st2" width="501.7" height="1.5"/>
		<rect y="502.4" class="st2" width="501.7" height="1.5"/>
		<rect y="507.2" class="st2" width="501.7" height="1.5"/>
		<rect y="511.9" class="st2" width="501.7" height="1.5"/>
		<rect y="516.7" class="st2" width="501.7" height="1.5"/>
		<rect y="521.5" class="st2" width="501.7" height="1.5"/>
		<rect y="526.3" class="st2" width="501.7" height="1.5"/>
		<rect y="531.1" class="st2" width="501.7" height="1.5"/>
		<rect y="535.9" class="st2" width="501.7" height="1.5"/>
		<rect y="540.7" class="st2" width="501.7" height="1.5"/>
		<rect y="545.4" class="st2" width="501.7" height="1.5"/>
		<rect y="550.2" class="st2" width="501.7" height="1.5"/>
		<rect y="555" class="st2" width="501.7" height="1.5"/>
		<rect y="559.8" class="st2" width="501.7" height="1.5"/>
		<rect y="564.6" class="st2" width="501.7" height="1.5"/>
		<rect y="569.3" class="st2" width="501.7" height="1.5"/>
		<rect y="574.1" class="st2" width="501.7" height="1.5"/>
		<rect y="578.9" class="st2" width="501.7" height="1.5"/>
		<rect y="583.7" class="st2" width="501.7" height="1.5"/>
		<rect y="588.5" class="st2" width="501.7" height="1.5"/>
		<rect y="593.3" class="st2" width="501.7" height="1.5"/>
		<rect y="598.1" class="st2" width="501.7" height="1.5"/>
		<rect y="602.8" class="st2" width="501.7" height="1.5"/>
		<rect y="607.6" class="st2" width="501.7" height="1.5"/>
		<rect y="612.4" class="st2" width="501.7" height="1.5"/>
		<rect y="617.2" class="st2" width="501.7" height="1.5"/>
		<rect y="622" class="st2" width="501.7" height="1.5"/>
		<rect y="626.8" class="st2" width="501.7" height="1.5"/>
		<rect y="631.5" class="st2" width="501.7" height="1.5"/>
		<rect y="636.3" class="st2" width="501.7" height="1.5"/>
		<rect y="641.1" class="st2" width="501.7" height="1.5"/>
		<rect y="645.9" class="st2" width="501.7" height="1.5"/>
		<rect y="650.7" class="st2" width="501.7" height="1.5"/>
		<rect y="655.5" class="st2" width="501.7" height="1.5"/>
		<rect y="660.3" class="st2" width="501.7" height="1.5"/>
		<rect y="665" class="st2" width="501.7" height="1.5"/>
		<rect y="669.8" class="st2" width="501.7" height="1.5"/>
		<rect y="674.6" class="st2" width="501.7" height="1.5"/>
		<rect y="679.4" class="st2" width="501.7" height="1.5"/>
		<rect y="684.2" class="st2" width="501.7" height="1.5"/>
		<rect y="689" class="st2" width="501.7" height="1.5"/>
		<rect y="693.8" class="st2" width="501.7" height="1.5"/>
		<rect y="698.5" class="st2" width="501.7" height="1.5"/>
		<rect y="703.3" class="st2" width="501.7" height="1.5"/>
		<rect y="708.1" class="st2" width="501.7" height="1.5"/>
		<rect y="712.9" class="st2" width="501.7" height="1.5"/>
		<rect y="717.7" class="st2" width="501.7" height="1.5"/>
		<rect y="722.5" class="st2" width="501.7" height="1.5"/>
		<rect y="727.2" class="st2" width="501.7" height="1.5"/>
		<rect y="732" class="st2" width="501.7" height="1.5"/>
		<rect y="736.8" class="st2" width="501.7" height="1.5"/>
		<rect y="741.6" class="st2" width="501.7" height="1.5"/>
		<rect y="746.4" class="st2" width="501.7" height="1.5"/>
		<rect y="751.2" class="st2" width="501.7" height="1.5"/>
		<rect y="756" class="st2" width="501.7" height="1.5"/>
		<rect y="760.7" class="st2" width="501.7" height="1.5"/>
		<rect y="765.5" class="st2" width="501.7" height="1.5"/>
		<rect y="770.3" class="st2" width="501.7" height="1.5"/>
		<rect y="775.1" class="st2" width="501.7" height="1.5"/>
		<rect y="779.9" class="st2" width="501.7" height="1.5"/>
		<rect y="784.7" class="st2" width="501.7" height="1.5"/>
		<rect y="789.4" class="st2" width="501.7" height="1.5"/>
		<rect y="794.2" class="st2" width="501.7" height="1.5"/>
		<rect y="799" class="st2" width="501.7" height="1.5"/>
		<rect y="803.8" class="st2" width="501.7" height="1.5"/>
		<rect y="808.6" class="st2" width="501.7" height="1.5"/>
		<rect y="813.4" class="st2" width="501.7" height="0.2"/>
	</g>
	<path class="st3" d="M292.7,130.3c0,0,0.7-18.5-1.4-21.3c0,0-2.8-9.4-2.1-12c0,0-6.1-0.5-6.6-10.3c0,0-1.4-16.4,4.2-8.7
		c0,0-7.7-38.7,26-39.6c0,0,31-1.2,26.7,38.2c0,0,6.3-2.6,4,10.3c0,0-0.5,10.6-6.1,9.8c0,0-0.2,10.6-2.6,12.4c0,0-3,15.9-0.5,19.7
		s21.1,19,29.3,19.2c0,0,38.2-9.4,44.1,36.6c0,0,0.2,11.7-1.4,20.2c0,0-0.5,6.6,1.4,11.3c0,0,5.4,20.6,5.9,29.8
		c0,0,1.9,9.4,8.4,16.4c5.7,9.5,10,19.8,12.9,30.5c4.9,18.1,5.2,24.4,9.1,32.4s6.8,21.6,9.6,26.5s1.6,6.6,8,9.6
		c4.8,2.2,9,5.5,12.2,9.7c2.8,3.5,13.6,10.3,13.1,12.4s-4.7,4-7.3,1.9s-9.1-5.2-8-2.8s14.4,28.7,11.4,31.8l-0.1,0.1
		c0,0-3.3,0.5-5.5-4.4s-7.9-12.3-7.9-12.3L473,412c0,0,5.1,10.5,2.3,11.9c0,0-3.6,0.9-5.3-5.3l-9.7-20.2c0,0-1.4-0.8-1,1.5
		s4.7,22.5,5.3,23.3s0.7,4.2-1.3,4.8c0,0-3.5,0.5-4.4-4.5c0,0-8-22.1-8-23.5s-1.3-0.5-1.3,0.1s0.7,18.5-0.1,19.7
		c-0.1,0.9-0.9,1.6-1.8,1.6c-1.9-0.3-3.3-1.8-3.4-3.7c0,0-1.1-10.7-0.9-13.8c0.1-2.7-0.4-5.5-1.4-8c-0.6-1.8-6.1-12.8-7-17.8
		s-1.9-6.5-2.2-10.8s-2.2-10.8-2.9-13.5c0,0-16-30.7-22-40.7c0,0-20-32-18.7-45.4c0,0-12.7-34-14-36c0,0-12.7,36-8,60
		c0,0,4,24.7,4,33.4s11.3,49.4,12,66.7s2,54-4,78s-2.7,37.4-2.7,47.4c0,10,4,34,4.7,46s-1.3,54-6.7,73.4s-3.3,32-2,39.3
		s9.3,20,16,24.7s31.4,22.7,6,26c0,0-5.3,4.7-14-0.7c0,0-11.3-3.3-13.3-13.3c0,0-7.3-4-12-4.7s-12-10-6.7-16c0,0,3.3-6.7,1.3-12
		s0-14,0.7-18s-1.3-16-2.7-26s-13.3-43.3-8.7-63.4s2-20.7,0-36s-9.3-42-9.3-55.4s-16.7-59.4-14-84h-4.6c0,0-7.3,66.7-17.3,107.4
		c0,0-1.3,30-8,39.3c0,0,0.7,12,2,22s3.3,33.3-2.7,46.7s-8.7,48-8.7,56.7s-2,12.7,0.7,19.3s6.7,14,0,17.3s-18,6-19.3,8.7
		s-19.3,23.3-29.4,10.7c0,0-18.7-4-6-14c0,0,13.3-6,20-14s10-15.4,11.3-17.4s2-17.3,1.3-26.7s-10.6-69.3-8.6-81.3s5.3-32.7,7.3-43.4
		s-0.7-26.7-0.7-32.7s-12.6-72.7-9.3-96.7s6-54,10.7-66.7c4.7-12.7,6.7-42.7,7.3-52s-8-45.4-9.3-48.7c0,0-10.7,27.4-14,37.4
		s-0.7,16-8.7,28.7s-18.7,30.7-26,46s-8,27.4-11.3,39.4s-7.3,16-7.3,16l-1,18.6c0,0,0,3.8-2.7,4.4c-1.7-0.3-2.9-2-2.6-3.7
		c0-0.2,0.1-0.5,0.2-0.7c0,0,0.8-15.5,0.3-17.6c0,0-0.6-0.9-1.5,0.5s-7.4,24.1-8.6,25.7s-2,2.6-3.5,2.4c0,0-3.5-1.4-1.8-4.7
		c0,0,2.6-10.7,3.8-12.8s3-11.3,2.6-12c-0.2-0.5-0.8-0.7-1.3-0.5c-0.1,0.1-0.2,0.1-0.3,0.2c-0.6,0.6-6.6,15.5-7.4,17
		s-3.9,10.8-7.8,9.9c0,0-4.1-1.5-0.8-6.9c0,0,3.5-9.6,4.5-11s4.4-10.8,4.2-12s-1.4,0.8-1.8,1.2s-7.8,12.9-9,14.8s-3.5,3.6-5.1,3.2
		c0,0-2.9-0.5-0.1-6c0,0,5.7-10.1,7.5-14.5s4.1-13.7,4.7-14.8c0,0-3.3,2.6-5,4.1s-7.4,3.3-9.5,2.3s-3.2-2.3-1.1-3.5
		c2.5-1.7,4.8-3.5,6.9-5.6c1.2-1,8-6.3,9-8.1s8.6-7.5,9.9-8.7c3.2-3.8,5.9-7.9,8.1-12.3c1.5-3.6,11-26.9,12.5-33.3
		s5.4-28.4,6.9-33.7s6.3-13.1,9-17.3s9.6-15,10.2-20.8s3.2-21.1,4.4-24.5s1.2-12.9,0.9-18.1s-5-26.3,8-39.3s25.6-14.8,33.1-13.4
		C272.8,144.5,283.7,138.6,292.7,130.3z"/>
	<path id="manSvg" class="st4" d="M474,371c-3.2-4.2-7.4-7.5-12.2-9.6c-6.3-3-5.2-4.7-8-9.6s-5.6-18.5-9.6-26.5s-4.2-14.3-9.1-32.4
		c-2.9-10.7-7.2-21-12.9-30.5c-6.6-7-8.4-16.4-8.4-16.4c-0.5-9.1-5.9-29.8-5.9-29.8c-1.9-4.7-1.4-11.3-1.4-11.3
		c1.6-8.4,1.4-20.2,1.4-20.2c-5.9-46-44.1-36.6-44.1-36.6c-8.2-0.2-26.7-15.5-29.3-19.2s0.5-19.7,0.5-19.7
		c2.3-1.9,2.6-12.4,2.6-12.4c5.6,0.7,6.1-9.8,6.1-9.8c2.4-12.9-4-10.3-4-10.3c3.6-33.1-17.6-37.6-24.5-38.2v358.8h1.1
		c-2.7,24.7,14,70.7,14,84s7.3,40,9.3,55.4s4.7,16,0,36s7.3,53.4,8.7,63.4s3.3,22,2.7,26s-2.7,12.7-0.7,18s-1.3,12-1.3,12
		c-5.3,6,2,15.3,6.7,16s12,4.7,12,4.7c2,10,13.3,13.3,13.3,13.3c8.7,5.3,14,0.7,14,0.7c25.4-3.3,0.7-21.3-6-26s-14.7-17.3-16-24.7
		s-3.3-20,2-39.3s7.3-61.4,6.7-73.4s-4.7-36-4.7-46s-3.3-23.4,2.7-47.4s4.7-60.7,4-78s-12-58-12-66.7s-4-33.4-4-33.4
		c-4.7-24,8-60,8-60c1.3,2,14,36,14,36c-1.3,13.3,18.7,45.4,18.7,45.4c6,10,22,40.7,22,40.7c0.7,2.7,2.6,9.2,2.9,13.5
		s1.2,5.8,2.2,10.8s6.4,16,7,17.8c1,2.6,1.4,5.3,1.4,8c-0.2,3.2,0.9,13.8,0.9,13.8c0.2,1.9,1.6,3.4,3.4,3.7c0.9-0.1,1.6-0.7,1.8-1.6
		c0.8-1.2,0.1-19.1,0.1-19.7s1.4-1.5,1.3-0.1s8,23.5,8,23.5c0.9,5.1,4.4,4.5,4.4,4.5c2-0.6,1.8-4,1.3-4.8s-4.9-21-5.3-23.3
		s1-1.5,1-1.5l9.7,20.2c1.7,6.2,5.3,5.3,5.3,5.3c2.8-1.5-2.3-11.9-2.3-11.9l-3.4-14.3c0,0,5.6,7.4,7.9,12.3s5.5,4.4,5.5,4.4l0.1-0.1
		c2.9-3.1-10.3-29.5-11.4-31.8s5.4,0.7,8,2.8s6.8,0.2,7.3-1.9S476.8,374.5,474,371z"/>
	<rect id="manFeet" x="39.6" y="662.1" class="st5" width="275.2" height="79.4"/>
	<circle class="st3" cx="81.3" cy="701.7" r="37.6"/>
	<rect id="manShins" x="39.6" y="572.8" class="st6" width="275.2" height="79.4"/>
	<circle class="st3" cx="81.3" cy="612" r="37.6"/>
	<rect id="manKidneys" x="39.6" y="394.4" class="st7" width="275.2" height="79.4"/>
	<circle class="st3" cx="81.3" cy="434.4" r="37.6"/>
	<rect id="manStomach" x="39.6" y="306.1" class="st8" width="275.2" height="79.4"/>
	<circle class="st3" cx="81.3" cy="345.9" r="37.6"/>
	<rect id="manLungs" x="39.6" y="216.8" class="st9" width="275.2" height="79.4"/>
	<circle class="st3" cx="81.3" cy="257.2" r="37.6"/>
	<rect id="manShoulders" x="39.6" y="127.6" class="st10" width="275.2" height="79.4"/>
	<circle class="st3" cx="81.3" cy="167.5" r="37.6"/>
	<rect id="manHead" x="39.6" y="38.4" class="st11" width="275.2" height="79.4"/>
	<circle class="st3" cx="81.3" cy="78.5" r="37.6"/>
	<g>
		<path class="st12" d="M80,56.5c0,0,0.7-2.9-3.4-3c0,0-4-0.2-3.4,2.4c0,0-3.9,0.9-2.9,2.8c0,0-4.7,0.2-3.1,3.3c0,0-2.4,0.3-1.2,2.3
			c0,0-4.2,1.6-2.4,4.2c0,0-4,1.3-2.2,3.3c0,0-1.8,2.3-0.5,3.2c-0.6,1.2-0.3,2.7,0.7,3.6c0,0-3.4,6.2,0.1,8.9c0,0,0.9,5.6,2.6,6.1
			c0,0,2,4.8,3.7,4.4c0,0,2.1,1.8,2.7,1c0,0,2.6,2,3.2,1.1c0,0,4.5,3.4,4.4,0.3c0,0,2.7-0.1,2.1-1.3C77.4,94,80,56.5,80,56.5z"/>
		<path class="st12" d="M81.3,56.7c0,0-0.8-2.9,3.3-3c0,0,4-0.2,3.5,2.3c0,0,3.9,0.9,3,2.7c0,0,4.7,0.2,3.2,3.2c0,0,2.4,0.2,1.2,2.3
			c0,0,4.2,1.5,2.4,4.2c0,0,4,1.2,2.2,3.2c0,0,1.8,2.3,0.6,3.2c0.6,1.2,0.3,2.7-0.7,3.6c0,0,3.5,6.1,0.1,8.9c0,0-0.8,5.7-2.5,6.2
			c0,0-1.9,4.8-3.7,4.5c0,0-2.1,1.8-2.7,1c0,0-2.6,2-3.2,1.2c0,0-4.5,3.5-4.3,0.3c0,0-2.2,0.1-2.1-1.3
			C83.2,85.1,83.1,70.8,81.3,56.7z"/>
	</g>
	<g>
		<path class="st12" d="M66.9,173.3c-0.5-0.3-0.8-0.8-0.9-1.4c-0.1-1-0.4-2-1-2.9c-0.3-0.5-3.9-8.8,4.1-12.3c0.5-0.3,1-0.5,1.6-0.5
			c0,0,3.4-4.6,3.8-7c0.1-0.5,0.1-1-0.1-1.5c0,0-0.4-3.2,2-3.4c1.2-0.2,2.4,0.6,2.6,1.8c0,0-0.1,1.3,0.3,1.2c0,0,3.3-1.7,4.2-0.7
			c0,0,0-2,0.3-2l1.5-0.4c0.3,0.4,0.4,0.9,0.4,1.4c0.5-0.2,1.1-0.4,1.7-0.4l0.6-1.8c0.5-0.2,1.1-0.3,1.7-0.2c0,0.6,0,1.3-0.1,1.9
			c0.3,0,0.7,0,1,0.2c0.6-0.7,1.2-1.3,1.9-1.9c0.5,0.1,1,0.3,1.4,0.7c-0.2,0.7-0.5,1.3-1,1.9c0.6,0.6,0.7,1.6,0.1,2.3l-0.3,0.3
			c0,0,0.1,1.6-2.7,1.7c0,0-2.6,0.1-3.2,1c0,0,9.1,0.9,10.1,2.4c0.6,1.4-0.1,3.1-1.5,3.7c0,0-0.1,0-0.1,0c-0.1,0-0.3,0.1-0.4,0.1h-3
			c0,0,1.4,1.7,2.3,1.7c0,0,3.4,0.7,3.3,1.7c0,0-0.1,1.9-3.3,0.5l3,2.1c-0.2,0.8-1,1.3-1.8,1.1c0,0,0,0,0,0c0,0,0,3.9-1.4,3.6
			c1.9,3.5,2.2,7.7,0.8,11.4c-1.4,3.6-3.7,6.8-6.7,9.3c-0.4,0.4-0.8,0.8-1.1,1.2c-0.4,0.7-1.1,1.2-1.9,1.4c-1,0.4-2.1,0.3-3.1-0.2
			c-1.5-0.6-4.4-2.3-5.3-2.7c-2.1-1.1-4-2.7-5.5-4.6C69.6,181.7,66.6,176.7,66.9,173.3z"/>
		<path class="st3" d="M80.2,185.5c-0.8-0.8-1-1.3-0.8-3.1c0.2-0.4,0-1-0.4-1.2c-0.6-0.4-1-1-1.3-1.6c-0.4-0.8-0.7-1.7-0.8-2.6
			c0-0.8,0.2-1.7,0.6-2.4c0.3-0.5,0.6-1,0.8-1.6c0.6-1.2,1.2-2.4,1.7-3.6c0.6-1.8,4.8-4.7,5-4.8l0.3,0.4c0,0-4.2,2.9-4.8,4.6
			c-0.5,1.3-1.1,2.5-1.7,3.7c-0.3,0.5-0.6,1-0.8,1.6c-0.8,1.6-0.8,2.6,0.2,4.7c0.2,0.6,0.6,1.1,1.1,1.4c0.6,0.4,0.8,1.1,0.6,1.7
			c-0.2,1.7,0,2.1,0.6,2.7L80.2,185.5z"/>
		<path class="st3" d="M80.7,175.6l-0.5-0.1c0-0.2,0.1-0.3,0.2-0.4c0.1,0,0.1-0.1,0.1-0.2c-0.1-0.4-0.3-0.8-0.5-1.1
			c-0.7-1.1-0.8-2.5-0.3-3.7l0.4,0.2l-0.2-0.1l0.2,0.1c-0.4,1.1-0.3,2.3,0.3,3.3c0.8,1.1,0.7,1.5,0.3,1.9V175.6z"/>
		<path class="st3" d="M81.2,180.6c-0.2-1-0.5-1.2-1.6-2.1l-0.8-0.6c-1.8-1.5-0.8-4.5-0.8-4.6l0.4,0.1c0,0-0.9,2.8,0.6,4.1l0.8,0.6
			c1.1,0.9,1.5,1.3,1.7,2.4L81.2,180.6z"/>
		<path class="st3" d="M72.2,179.8c-0.5-1-0.5-1.5,0.3-3.2c0.3-0.4,0.3-0.9,0-1.3c-0.4-0.6-0.6-1.2-0.7-1.9
			c-0.2-0.9-0.1-1.9,0.1-2.8c0.3-0.8,0.7-1.5,1.3-2.1c0.4-0.4,0.9-0.8,1.3-1.2c1-0.9,1.9-1.9,2.8-2.9c1.2-1.5,6-2.9,6.3-3l0.1,0.5
			c0,0-4.9,1.4-6,2.8c-0.9,1-1.8,2-2.8,2.9c-0.4,0.4-0.9,0.8-1.3,1.2c-1.3,1.3-1.6,2.2-1.3,4.5c0,0.6,0.3,1.2,0.6,1.7
			c0.4,0.5,0.4,1.2,0.1,1.8c-0.7,1.6-0.7,2-0.3,2.8L72.2,179.8z"/>
		<path class="st3" d="M75,171.1l-0.4-0.2c0.1-0.2,0.2-0.3,0.4-0.3c0.1,0,0.2-0.1,0.2-0.2c0.1-0.4,0-0.8-0.1-1.2
			c-0.2-1.3,0.2-2.6,1.1-3.6l0.3,0.3l-0.2-0.2l0.2,0.2c-0.8,0.8-1.2,2-1,3.1c0.3,1.3,0.1,1.7-0.4,1.9C75,171,75,171,75,171.1z"/>
		<path class="st3" d="M75.7,175.9h-0.5c0-1-0.2-1.3-1.1-2.4l-0.6-0.8c-1.5-1.8,0.1-4.5,0.1-4.6l0.4,0.3l-0.2-0.1l0.2,0.1
			c0,0-1.4,2.5-0.2,4.1l0.6,0.8C75.3,174.3,75.7,174.7,75.7,175.9z"/>
		<path class="st3" d="M85.3,178.6l-0.4-0.2c0.2-0.5,0.6-0.9,1-1.3l1.2-1.2c0.8-0.7,1.1-1.8,0.9-2.9v-1.3c0-2.3,2.9-4.6,3.1-4.6
			l0.3,0.4c0,0-2.9,2.2-2.9,4.3v1.3c0.2,1.2-0.1,2.4-1,3.2c-0.4,0.4-0.8,0.8-1.2,1.2C85.8,177.7,85.5,178.1,85.3,178.6z"/>
		<path class="st3" d="M90.2,177.1l-0.5-0.1c0-0.2,0.1-0.3,0.1-0.5c0.1-0.4,0.2-0.6-0.9-1.9c-0.9-1-1.3-2.3-1.1-3.6l0.5,0.1
			c-0.2,1.1,0.2,2.3,1,3.1c1.2,1.3,1.2,1.6,1,2.3C90.3,176.7,90.3,176.9,90.2,177.1z"/>
		<path class="st3" d="M83.2,178.5c0-0.8,0.3-1.5,0.8-2.1c0.2-0.3,0.3-0.6,0.5-0.9c0.3-0.5,0.8-0.9,1.3-1.2c0.5-0.2,0.8-0.6,1.1-1
			c0.5-1.2,1.4-3,1.4-3l0.4,0.2c0,0-0.9,1.8-1.4,3c-0.3,0.6-0.7,1-1.3,1.3c-0.5,0.2-0.8,0.6-1.1,1c-0.2,0.4-0.4,0.7-0.5,0.9
			c-0.4,0.6-0.6,1.2-0.7,1.9L83.2,178.5L83.2,178.5L83.2,178.5z"/>
		<path class="st13" d="M73.5,172.6c0,0,1,1.9,0.6,3s-1,2.2-0.5,3.5"/>
	</g>
	<path class="st12" d="M103.3,253.4c-4-12-12.2-13.5-12.2-13.5c-1.6-0.8-1.8-0.9-3.8,0.3s-1.4,4.7-1.3,5.7c0,0.6,0,1.2-0.1,1.8
		c-1.2-0.4-2.3-1.2-3-2.2c0-4.5,0.6-12.1,0.6-12.1h-2.9c0,0,0.4,7.1,0.3,11.8c-0.7,0.9-1.6,1.6-2.7,2v-1.4c0.1-1.1,0.6-4.6-1.3-5.7
		s-2.2-1.1-3.8-0.3c0,0-8.2,1.5-12.2,13.5c-4,12-3.6,19.3,0.5,21.6s11.9,1.4,14.9-0.4s2.1-5.4,2-6.8c0-2,0.2-4,0.5-6
		c0.2-2.4,0.2-4.8,0.1-7.2c0.6-0.9,1.6-1.4,2.7-1.5c1.5,0.1,2.8,0.8,3.6,2.1c-0.1,2.2-0.1,4.5,0.1,6.7c0.4,2,0.6,4,0.5,6
		c-0.1,1.4-1,5,2,6.8s10.8,2.7,14.9,0.4S107.3,265.4,103.3,253.4z"/>
	<path class="st12" d="M76.4,329.7c0,0,0.5-2.1,3.4-1.7c0,0,2.1,4.1,5.9,3.4c1.1-0.8,2.2-1.6,3.2-2.6c1.9-2.3,5-3,7.7-1.8
		c1.8,0.9,3.2,2.5,4,4.4c0,0,2.5,5.8-1.8,15c0,0-6.1,13.1-19.1,12.3c0,0-7.7-1.3-7.1-5.7c0.7-1.3,0.2-3-1.2-3.6c0,0-0.1,0-0.1-0.1
		c-0.2-0.1-0.4-0.2-0.6-0.2c-1-0.3-2.1,0.3-2.4,1.3c-1.3,2.5-1.7,5.4-1.3,8.2c0.3,3.7,2.1,7.2,5,9.6c0,0-3.6,0.4-2.4,3.7
		c0,0-3.4-2.1-5.5-7.9c-1.1-4.5-1.2-9.2-0.4-13.8c0,0,0.7-4.2,3.5-5.6c0,0,2.9-2.4,6.7,0.9c1.1,1.6,3.1,2.4,5,2c0,0,4.4-1,5.6-3.7
		c0,0,2.1-3.6-0.1-6.1C84.5,337.7,78.5,334,76.4,329.7z"/>
	<g>
		<path class="st12" d="M87.3,430.2c1.5,0.2,3,0,4.4-0.5c-1.4-0.6-5.4-2.6-5.4-6.8c0-5.1,3.8-8.5,7.1-8.5s13.1,6.1,13.1,15.7
			s-9.1,17.2-12,17.2S88,442.8,88,440s0.9-7.2,3.9-7.2h0.6c-1.1-0.6-5.2,0-5.2,0c-2.2,0-2.8,3.4-2.8,3.4v17.5h-2v-17.6
			C82.3,433.2,84.4,430.6,87.3,430.2z"/>
		<path class="st12" d="M75.9,430.2c-1.5,0.2-3,0-4.4-0.5c1.4-0.6,5.4-2.6,5.4-6.8c0-5.1-3.8-8.5-7.1-8.5s-13.1,6.1-13.1,15.7
			s9.1,17.2,12,17.2s6.6-4.4,6.6-7.3s-0.9-7.2-3.9-7.2h-0.6c1.1-0.6,5.2,0,5.2,0c2.2,0,2.8,3.4,2.8,3.4v17.5h2v-17.6
			C80.9,433.2,78.8,430.6,75.9,430.2z"/>
	</g>
	<rect id="manKnees" x="39.6" y="483.6" class="st14" width="275.2" height="79.4"/>
	<circle class="st3" cx="81.3" cy="523.4" r="37.6"/>
	<g>
		<path class="st12" d="M86.2,511.5c-0.5-3.1-1.2-8.5-1.5-14.1h-7.1c0.1,4.7-0.2,9.4-0.9,14.1c-2.9,1-4.5,4.1-3.5,7.1
			c0.9,2.8,4,4.4,6.8,3.6c0.5-0.1,0.9-0.3,1.3-0.6c2.7,1.5,6.2,0.4,7.6-2.3c1.4-2.6,0.5-5.8-1.9-7.4
			C86.7,511.7,86.5,511.6,86.2,511.5z"/>
		<path class="st12" d="M78.3,536.2c0.2,3.6,0.4,8.6,0.4,13.7h7c-0.2-5-0.1-10.2,1-14c2.9-1,4.5-4.1,3.5-7.1c-0.9-2.8-4-4.4-6.8-3.6
			c-0.5,0.2-1,0.4-1.4,0.6c-2.7-1.5-6.2-0.6-7.7,2.1c-1.5,2.7-0.6,6.2,2.1,7.7C77,535.9,77.6,536.1,78.3,536.2z"/>
	</g>
	<path class="st12" d="M84.9,627.8c0-7.3,0.1-21.2,1.6-27.5c2.8-0.8,4.5-3.8,3.7-6.6c-0.8-2.8-3.6-4.5-6.5-3.7c0,0-0.1,0-0.1,0
		c-0.4,0.1-0.8,0.3-1.2,0.5c-2.5-1.6-5.8-0.9-7.4,1.6c-1.6,2.5-0.9,5.8,1.6,7.4l0,0c0.2,0.1,0.5,0.3,0.7,0.4
		c0.7,5.8,1.9,19.9-0.7,27.9c-2.8,0.8-4.5,3.8-3.7,6.6c0.8,2.8,3.6,4.5,6.5,3.7c0,0,0.1,0,0.1,0c0.4-0.1,0.7-0.3,1.1-0.4
		c2.5,1.6,5.8,0.9,7.4-1.5c1.6-2.5,0.9-5.8-1.5-7.4c-0.1-0.1-0.2-0.1-0.3-0.2C85.9,628.1,85.4,627.8,84.9,627.8z"/>
	<path class="st12" d="M64,686.8c0,0,1.8,4.5,1.5,8c-0.1,2.4-0.3,4.8-0.8,7.2c-0.4,1.4-3,7.6,1,10c2.7,0.4,5.5,0.3,8.2-0.3
		c2.1-0.4,4.3-0.1,6.2,0.8c0,0,11.2,4.5,19,1.2c1.5-0.1,3-0.4,4.4-0.8c0,0,6.4-3.1,3.1-5.5c0,0-3.5-0.1-4.2,0.3c0,0-2.1-1-3.5-0.6
		c0,0-4.5-1.5-5.4-2.8s-9.1-8.5-10.3-9.5s-4.9-8.3-5.7-9.6c-0.5-1-1-2.1-1.3-3.2L64,686.8z"/>
</g>
</svg>
